src/fpga/Bellman.vcd
$version Generated by VerilatedVcd $end
$date Tue Apr  5 19:20:30 2016
 $end
$timescale 1ns $end

 $scope module TOP $end
  $var wire 32 P adjmat(0)(0) [31:0] $end
  $var wire 32 Q adjmat(0)(1) [31:0] $end
  $var wire 32 R adjmat(0)(2) [31:0] $end
  $var wire 32 S adjmat(0)(3) [31:0] $end
  $var wire 32 T adjmat(0)(4) [31:0] $end
  $var wire 32 U adjmat(1)(0) [31:0] $end
  $var wire 32 V adjmat(1)(1) [31:0] $end
  $var wire 32 W adjmat(1)(2) [31:0] $end
  $var wire 32 X adjmat(1)(3) [31:0] $end
  $var wire 32 Y adjmat(1)(4) [31:0] $end
  $var wire 32 Z adjmat(2)(0) [31:0] $end
  $var wire 32 [ adjmat(2)(1) [31:0] $end
  $var wire 32 \ adjmat(2)(2) [31:0] $end
  $var wire 32 ] adjmat(2)(3) [31:0] $end
  $var wire 32 ^ adjmat(2)(4) [31:0] $end
  $var wire 32 _ adjmat(3)(0) [31:0] $end
  $var wire 32 ` adjmat(3)(1) [31:0] $end
  $var wire 32 a adjmat(3)(2) [31:0] $end
  $var wire 32 b adjmat(3)(3) [31:0] $end
  $var wire 32 c adjmat(3)(4) [31:0] $end
  $var wire 32 d adjmat(4)(0) [31:0] $end
  $var wire 32 e adjmat(4)(1) [31:0] $end
  $var wire 32 f adjmat(4)(2) [31:0] $end
  $var wire 32 g adjmat(4)(3) [31:0] $end
  $var wire 32 h adjmat(4)(4) [31:0] $end
  $var wire  1 M clk $end
  $var wire  1 s done $end
  $var wire  1 N reset $end
  $var wire  7 O src [6:0] $end
  $var wire 32 t test [31:0] $end
  $var wire 32 u test2 [31:0] $end
  $var wire 39 i vertmat(0) [38:0] $end
  $var wire 39 k vertmat(1) [38:0] $end
  $var wire 39 m vertmat(2) [38:0] $end
  $var wire 39 o vertmat(3) [38:0] $end
  $var wire 39 q vertmat(4) [38:0] $end
  $scope module v $end
   $var wire 32 # adjmat(0)(0) [31:0] $end
   $var wire 32 $ adjmat(0)(1) [31:0] $end
   $var wire 32 % adjmat(0)(2) [31:0] $end
   $var wire 32 & adjmat(0)(3) [31:0] $end
   $var wire 32 ' adjmat(0)(4) [31:0] $end
   $var wire 32 ( adjmat(1)(0) [31:0] $end
   $var wire 32 ) adjmat(1)(1) [31:0] $end
   $var wire 32 * adjmat(1)(2) [31:0] $end
   $var wire 32 + adjmat(1)(3) [31:0] $end
   $var wire 32 , adjmat(1)(4) [31:0] $end
   $var wire 32 - adjmat(2)(0) [31:0] $end
   $var wire 32 . adjmat(2)(1) [31:0] $end
   $var wire 32 / adjmat(2)(2) [31:0] $end
   $var wire 32 0 adjmat(2)(3) [31:0] $end
   $var wire 32 1 adjmat(2)(4) [31:0] $end
   $var wire 32 2 adjmat(3)(0) [31:0] $end
   $var wire 32 3 adjmat(3)(1) [31:0] $end
   $var wire 32 4 adjmat(3)(2) [31:0] $end
   $var wire 32 5 adjmat(3)(3) [31:0] $end
   $var wire 32 6 adjmat(3)(4) [31:0] $end
   $var wire 32 7 adjmat(4)(0) [31:0] $end
   $var wire 32 8 adjmat(4)(1) [31:0] $end
   $var wire 32 9 adjmat(4)(2) [31:0] $end
   $var wire 32 : adjmat(4)(3) [31:0] $end
   $var wire 32 ; adjmat(4)(4) [31:0] $end
   $var wire  1 M clk $end
   $var wire  1 s done $end
   $var wire 32 K dvw [31:0] $end
   $var wire 32 L e [31:0] $end
   $var wire  7 G i [6:0] $end
   $var wire  7 H j [6:0] $end
   $var wire  7 I k [6:0] $end
   $var wire  1 N reset $end
   $var wire  7 O src [6:0] $end
   $var wire  5 F state [4:0] $end
   $var wire 32 J svw [31:0] $end
   $var wire 32 t test [31:0] $end
   $var wire 32 u test2 [31:0] $end
   $var wire 39 < vertmat(0) [38:0] $end
   $var wire 39 > vertmat(1) [38:0] $end
   $var wire 39 @ vertmat(2) [38:0] $end
   $var wire 39 B vertmat(3) [38:0] $end
   $var wire 39 D vertmat(4) [38:0] $end
  $upscope $end
 $upscope $end
$enddefinitions $end


#0
b00000000000000000000000000000000 #
b00000000000000000000000000000000 $
b00000000000000000000000000000000 %
b00000000000000000000000000000000 &
b00000000000000000000000000000000 '
b00000000000000000000000000000000 (
b00000000000000000000000000000000 )
b00000000000000000000000000000000 *
b00000000000000000000000000000000 +
b00000000000000000000000000000000 ,
b00000000000000000000000000000000 -
b00000000000000000000000000000000 .
b00000000000000000000000000000000 /
b00000000000000000000000000000000 0
b00000000000000000000000000000000 1
b00000000000000000000000000000000 2
b00000000000000000000000000000000 3
b00000000000000000000000000000000 4
b00000000000000000000000000000000 5
b00000000000000000000000000000000 6
b00000000000000000000000000000000 7
b00000000000000000000000000000000 8
b00000000000000000000000000000000 9
b00000000000000000000000000000000 :
b00000000000000000000000000000000 ;
b000000000000000000000000000000000000000 <
b000000000000000000000000000000000000000 >
b000000000000000000000000000000000000000 @
b000000000000000000000000000000000000000 B
b000000000000000000000000000000000000000 D
b00000 F
b0000000 G
b0000000 H
b0000000 I
b00000000000000000000000000000000 J
b00000000000000000000000000000000 K
b00000000000000000000000000000000 L
1M
1N
b0000000 O
b00000000000000000000000000000000 P
b11111111111111111111111111111100 Q
b00000000000000000000000000000011 R
b00000000000000000000000000000000 S
b00000000000000000000000000000000 T
b00000000000000000000000000000000 U
b00000000000000000000000000000000 V
b00000000000000000000000000000000 W
b00000000000000000000000000000100 X
b00000000000000000000000000000000 Y
b00000000000000000000000000000000 Z
b00000000000000000000000000000000 [
b00000000000000000000000000000000 \
b00000000000000000000000000000110 ]
b00000000000000000000000000000000 ^
b00000000000000000000000000000000 _
b00000000000000000000000000000000 `
b00000000000000000000000000000000 a
b00000000000000000000000000000000 b
b00000000000000000000000000000000 c
b00000000000000000000000000000000 d
b00000000000000000000000000000000 e
b00000000000000000000000000000000 f
b00000000000000000000000000000000 g
b00000000000000000000000000000000 h
b000000000000000000000000000000000000000 i
b000000000000000000000000000000000000000 k
b000000000000000000000000000000000000000 m
b000000000000000000000000000000000000000 o
b000000000000000000000000000000000000000 q
0s
b00000000000000000000000000000000 t
b00000000000000000000000000000000 u
#1
b11111111111111111111111111111100 $
b00000000000000000000000000000011 %
b00000000000000000000000000000100 +
b00000000000000000000000000000110 0
0M
#2
1M
0N
#3
0M
#4
b0000001 I
1M
#5
0M
#6
b000000001111111111111111111111111111111 >
b0000010 I
1M
b000000001111111111111111111111111111111 k
#7
0M
#8
b000000001111111111111111111111111111111 @
b0000011 I
1M
b000000001111111111111111111111111111111 m
#9
0M
#10
b000000001111111111111111111111111111111 B
b0000100 I
1M
b000000001111111111111111111111111111111 o
#11
0M
#12
b00001 F
b0000000 I
1M
#13
0M
#14
b00010 F
1M
#15
0M
#16
b00011 F
1M
#17
0M
#18
b00100 F
1M
#19
0M
#20
b00001 F
b0000001 H
1M
#21
0M
#22
b00010 F
b11111111111111111111111111111100 L
1M
#23
0M
#24
b00011 F
b01111111111111111111111111111111 K
1M
#25
0M
#26
b00100 F
1M
#27
0M
#28
b000000011111111111111111111111111111100 >
b00001 F
b0000010 H
1M
b000000011111111111111111111111111111100 k
#29
0M
#30
b00010 F
b00000000000000000000000000000011 L
1M
#31
0M
#32
b00011 F
1M
#33
0M
#34
b00100 F
1M
#35
0M
#36
b000000000000000000000000000000000000011 @
b00001 F
b0000011 H
1M
b000000000000000000000000000000000000011 m
#37
0M
#38
b00010 F
b00000000000000000000000000000000 L
1M
#39
0M
#40
b00011 F
1M
#41
0M
#42
b00100 F
1M
#43
0M
#44
b00001 F
b0000100 H
1M
#45
0M
#46
b00010 F
1M
#47
0M
#48
b00011 F
b00000000000000000000000000000000 K
1M
#49
0M
#50
b00100 F
1M
#51
0M
#52
b00001 F
b0000001 G
b0000000 H
1M
#53
0M
#54
b00010 F
b11111111111111111111111111111100 J
1M
#55
0M
#56
b00011 F
1M
#57
0M
#58
b00100 F
1M
#59
0M
#60
b00001 F
b0000001 H
1M
#61
0M
#62
b00010 F
1M
#63
0M
#64
b00011 F
b11111111111111111111111111111100 K
1M
#65
0M
#66
b00100 F
1M
#67
0M
#68
b00001 F
b0000010 H
1M
#69
0M
#70
b00010 F
1M
#71
0M
#72
b00011 F
b00000000000000000000000000000011 K
1M
#73
0M
#74
b00100 F
1M
#75
0M
#76
b00001 F
b0000011 H
1M
#77
0M
#78
b00010 F
b00000000000000000000000000000100 L
1M
#79
0M
#80
b00011 F
b01111111111111111111111111111111 K
1M
#81
0M
#82
b000000101111111111111111111111111111111 B
b00100 F
1M
b000000101111111111111111111111111111111 o
#83
0M
#84
b000000100000000000000000000000000000000 B
b00001 F
b0000100 H
1M
b000000100000000000000000000000000000000 o
#85
0M
#86
b00010 F
b00000000000000000000000000000000 L
1M
#87
0M
#88
b00011 F
b00000000000000000000000000000000 K
1M
#89
0M
#90
b00100 F
1M
#91
0M
#92
b00001 F
b0000010 G
b0000000 H
1M
#93
0M
#94
b00010 F
b00000000000000000000000000000011 J
1M
#95
0M
#96
b00011 F
1M
#97
0M
#98
b00100 F
1M
#99
0M
#100
b00001 F
b0000001 H
1M
#101
0M
#102
b00010 F
1M
#103
0M
#104
b00011 F
b11111111111111111111111111111100 K
1M
#105
0M
#106
b00100 F
1M
#107
0M
#108
b00001 F
b0000010 H
1M
#109
0M
#110
b00010 F
1M
#111
0M
#112
b00011 F
b00000000000000000000000000000011 K
1M
#113
0M
#114
b00100 F
1M
#115
0M
#116
b00001 F
b0000011 H
1M
#117
0M
#118
b00010 F
b00000000000000000000000000000110 L
1M
#119
0M
#120
b00011 F
b00000000000000000000000000000000 K
1M
#121
0M
#122
b00100 F
1M
#123
0M
#124
b00001 F
b0000100 H
1M
#125
0M
#126
b00010 F
b00000000000000000000000000000000 L
1M
#127
0M
#128
b00011 F
1M
#129
0M
#130
b00100 F
1M
#131
0M
#132
b00001 F
b0000011 G
b0000000 H
1M
#133
0M
#134
b00010 F
b00000000000000000000000000000000 J
1M
#135
0M
#136
b00011 F
1M
#137
0M
#138
b00100 F
1M
#139
0M
#140
b00001 F
b0000001 H
1M
#141
0M
#142
b00010 F
1M
#143
0M
#144
b00011 F
b11111111111111111111111111111100 K
1M
#145
0M
#146
b00100 F
1M
#147
0M
#148
b00001 F
b0000010 H
1M
#149
0M
#150
b00010 F
1M
#151
0M
#152
b00011 F
b00000000000000000000000000000011 K
1M
#153
0M
#154
b00100 F
1M
#155
0M
#156
b00001 F
b0000011 H
1M
#157
0M
#158
b00010 F
1M
#159
0M
#160
b00011 F
b00000000000000000000000000000000 K
1M
#161
0M
#162
b00100 F
1M
#163
0M
#164
b00001 F
b0000000 G
b0000000 H
b0000001 I
1M
#165
0M
#166
b00010 F
1M
#167
0M
#168
b00011 F
1M
#169
0M
#170
b00100 F
1M
#171
0M
#172
b00001 F
b0000001 H
1M
#173
0M
#174
b00010 F
b11111111111111111111111111111100 L
1M
#175
0M
#176
b00011 F
b11111111111111111111111111111100 K
1M
#177
0M
#178
b00100 F
1M
#179
0M
#180
b00001 F
b0000010 H
1M
#181
0M
#182
b00010 F
b00000000000000000000000000000011 L
1M
#183
0M
#184
b00011 F
b00000000000000000000000000000011 K
1M
#185
0M
#186
b00100 F
1M
#187
0M
#188
b00001 F
b0000011 H
1M
#189
0M
#190
b00010 F
b00000000000000000000000000000000 L
1M
#191
0M
#192
b00011 F
b00000000000000000000000000000000 K
1M
#193
0M
#194
b00100 F
1M
#195
0M
#196
b00001 F
b0000100 H
1M
#197
0M
#198
b00010 F
1M
#199
0M
#200
b00011 F
1M
#201
0M
#202
b00100 F
1M
#203
0M
#204
b00001 F
b0000001 G
b0000000 H
1M
#205
0M
#206
b00010 F
b11111111111111111111111111111100 J
1M
#207
0M
#208
b00011 F
1M
#209
0M
#210
b00100 F
1M
#211
0M
#212
b00001 F
b0000001 H
1M
#213
0M
#214
b00010 F
1M
#215
0M
#216
b00011 F
b11111111111111111111111111111100 K
1M
#217
0M
#218
b00100 F
1M
#219
0M
#220
b00001 F
b0000010 H
1M
#221
0M
#222
b00010 F
1M
#223
0M
#224
b00011 F
b00000000000000000000000000000011 K
1M
#225
0M
#226
b00100 F
1M
#227
0M
#228
b00001 F
b0000011 H
1M
#229
0M
#230
b00010 F
b00000000000000000000000000000100 L
1M
#231
0M
#232
b00011 F
b00000000000000000000000000000000 K
1M
#233
0M
#234
b00100 F
1M
#235
0M
#236
b00001 F
b0000100 H
1M
#237
0M
#238
b00010 F
b00000000000000000000000000000000 L
1M
#239
0M
#240
b00011 F
1M
#241
0M
#242
b00100 F
1M
#243
0M
#244
b00001 F
b0000010 G
b0000000 H
1M
#245
0M
#246
b00010 F
b00000000000000000000000000000011 J
1M
#247
0M
#248
b00011 F
1M
#249
0M
#250
b00100 F
1M
#251
0M
#252
b00001 F
b0000001 H
1M
#253
0M
#254
b00010 F
1M
#255
0M
#256
b00011 F
b11111111111111111111111111111100 K
1M
#257
0M
#258
b00100 F
1M
#259
0M
#260
b00001 F
b0000010 H
1M
#261
0M
#262
b00010 F
1M
#263
0M
#264
b00011 F
b00000000000000000000000000000011 K
1M
#265
0M
#266
b00100 F
1M
#267
0M
#268
b00001 F
b0000011 H
1M
#269
0M
#270
b00010 F
b00000000000000000000000000000110 L
1M
#271
0M
#272
b00011 F
b00000000000000000000000000000000 K
1M
#273
0M
#274
b00100 F
1M
#275
0M
#276
b00001 F
b0000100 H
1M
#277
0M
#278
b00010 F
b00000000000000000000000000000000 L
1M
#279
0M
#280
b00011 F
1M
#281
0M
#282
b00100 F
1M
#283
0M
#284
b00001 F
b0000011 G
b0000000 H
1M
#285
0M
#286
b00010 F
b00000000000000000000000000000000 J
1M
#287
0M
#288
b00011 F
1M
#289
0M
#290
b00100 F
1M
#291
0M
#292
b00001 F
b0000001 H
1M
#293
0M
#294
b00010 F
1M
#295
0M
#296
b00011 F
b11111111111111111111111111111100 K
1M
#297
0M
#298
b00100 F
1M
#299
0M
#300
b00001 F
b0000010 H
1M
#301
0M
#302
b00010 F
1M
#303
0M
#304
b00011 F
b00000000000000000000000000000011 K
1M
#305
0M
#306
b00100 F
1M
#307
0M
#308
b00001 F
b0000011 H
1M
#309
0M
#310
b00010 F
1M
#311
0M
#312
b00011 F
b00000000000000000000000000000000 K
1M
#313
0M
#314
b00100 F
1M
#315
0M
#316
b00001 F
b0000000 G
b0000000 H
b0000010 I
1M
#317
0M
#318
b00010 F
1M
#319
0M
#320
b00011 F
1M
#321
0M
#322
b00100 F
1M
#323
0M
#324
b00001 F
b0000001 H
1M
#325
0M
#326
b00010 F
b11111111111111111111111111111100 L
1M
#327
0M
#328
b00011 F
b11111111111111111111111111111100 K
1M
#329
0M
#330
b00100 F
1M
#331
0M
#332
b00001 F
b0000010 H
1M
#333
0M
#334
b00010 F
b00000000000000000000000000000011 L
1M
#335
0M
#336
b00011 F
b00000000000000000000000000000011 K
1M
#337
0M
#338
b00100 F
1M
#339
0M
#340
b00001 F
b0000011 H
1M
#341
0M
#342
b00010 F
b00000000000000000000000000000000 L
1M
#343
0M
#344
b00011 F
b00000000000000000000000000000000 K
1M
#345
0M
#346
b00100 F
1M
#347
0M
#348
b00001 F
b0000100 H
1M
#349
0M
#350
b00010 F
1M
#351
0M
#352
b00011 F
1M
#353
0M
#354
b00100 F
1M
#355
0M
#356
b00001 F
b0000001 G
b0000000 H
1M
#357
0M
#358
b00010 F
b11111111111111111111111111111100 J
1M
#359
0M
#360
b00011 F
1M
#361
0M
#362
b00100 F
1M
#363
0M
#364
b00001 F
b0000001 H
1M
#365
0M
#366
b00010 F
1M
#367
0M
#368
b00011 F
b11111111111111111111111111111100 K
1M
#369
0M
#370
b00100 F
1M
#371
0M
#372
b00001 F
b0000010 H
1M
#373
0M
#374
b00010 F
1M
#375
0M
#376
b00011 F
b00000000000000000000000000000011 K
1M
#377
0M
#378
b00100 F
1M
#379
0M
#380
b00001 F
b0000011 H
1M
#381
0M
#382
b00010 F
b00000000000000000000000000000100 L
1M
#383
0M
#384
b00011 F
b00000000000000000000000000000000 K
1M
#385
0M
#386
b00100 F
1M
#387
0M
#388
b00001 F
b0000100 H
1M
#389
0M
#390
b00010 F
b00000000000000000000000000000000 L
1M
#391
0M
#392
b00011 F
1M
#393
0M
#394
b00100 F
1M
#395
0M
#396
b00001 F
b0000010 G
b0000000 H
1M
#397
0M
#398
b00010 F
b00000000000000000000000000000011 J
1M
#399
0M
#400
b00011 F
1M
#401
0M
#402
b00100 F
1M
#403
0M
#404
b00001 F
b0000001 H
1M
#405
0M
#406
b00010 F
1M
#407
0M
#408
b00011 F
b11111111111111111111111111111100 K
1M
#409
0M
#410
b00100 F
1M
#411
0M
#412
b00001 F
b0000010 H
1M
#413
0M
#414
b00010 F
1M
#415
0M
#416
b00011 F
b00000000000000000000000000000011 K
1M
#417
0M
#418
b00100 F
1M
#419
0M
#420
b00001 F
b0000011 H
1M
#421
0M
#422
b00010 F
b00000000000000000000000000000110 L
1M
#423
0M
#424
b00011 F
b00000000000000000000000000000000 K
1M
#425
0M
#426
b00100 F
1M
#427
0M
#428
b00001 F
b0000100 H
1M
#429
0M
#430
b00010 F
b00000000000000000000000000000000 L
1M
#431
0M
#432
b00011 F
1M
#433
0M
#434
b00100 F
1M
#435
0M
#436
b00001 F
b0000011 G
b0000000 H
1M
#437
0M
#438
b00010 F
b00000000000000000000000000000000 J
1M
#439
0M
#440
b00011 F
1M
#441
0M
#442
b00100 F
1M
#443
0M
#444
b00001 F
b0000001 H
1M
#445
0M
#446
b00010 F
1M
#447
0M
#448
b00011 F
b11111111111111111111111111111100 K
1M
#449
0M
#450
b00100 F
1M
#451
0M
#452
b00001 F
b0000010 H
1M
#453
0M
#454
b00010 F
1M
#455
0M
#456
b00011 F
b00000000000000000000000000000011 K
1M
#457
0M
#458
b00100 F
1M
#459
0M
#460
b00001 F
b0000011 H
1M
#461
0M
#462
b00010 F
1M
#463
0M
#464
b00011 F
b00000000000000000000000000000000 K
1M
#465
0M
#466
b00100 F
1M
#467
0M
#468
b00101 F
1M
#469
0M
#470
1M
1s
