src/fpga/Bellman.vcd
$version Generated by VerilatedVcd $end
$date Sat Apr  2 21:19:27 2016
 $end
$timescale 1ns $end

 $scope module TOP $end
  $var wire 32 "/ adjmat(0)(0) [31:0] $end
  $var wire 32 "0 adjmat(0)(1) [31:0] $end
  $var wire 32 "1 adjmat(0)(2) [31:0] $end
  $var wire 32 "2 adjmat(0)(3) [31:0] $end
  $var wire 32 "3 adjmat(0)(4) [31:0] $end
  $var wire 32 "4 adjmat(1)(0) [31:0] $end
  $var wire 32 "5 adjmat(1)(1) [31:0] $end
  $var wire 32 "6 adjmat(1)(2) [31:0] $end
  $var wire 32 "7 adjmat(1)(3) [31:0] $end
  $var wire 32 "8 adjmat(1)(4) [31:0] $end
  $var wire 32 "9 adjmat(2)(0) [31:0] $end
  $var wire 32 ": adjmat(2)(1) [31:0] $end
  $var wire 32 "; adjmat(2)(2) [31:0] $end
  $var wire 32 "< adjmat(2)(3) [31:0] $end
  $var wire 32 "= adjmat(2)(4) [31:0] $end
  $var wire 32 "> adjmat(3)(0) [31:0] $end
  $var wire 32 "? adjmat(3)(1) [31:0] $end
  $var wire 32 "@ adjmat(3)(2) [31:0] $end
  $var wire 32 "A adjmat(3)(3) [31:0] $end
  $var wire 32 "B adjmat(3)(4) [31:0] $end
  $var wire 32 "C adjmat(4)(0) [31:0] $end
  $var wire 32 "D adjmat(4)(1) [31:0] $end
  $var wire 32 "E adjmat(4)(2) [31:0] $end
  $var wire 32 "F adjmat(4)(3) [31:0] $end
  $var wire 32 "G adjmat(4)(4) [31:0] $end
  $var wire  1 ", clk $end
  $var wire  1 "M done $end
  $var wire  1 "- reset $end
  $var wire  8 ". src [7:0] $end
  $var wire 32 "N test [31:0] $end
  $var wire 32 "H vertmat(0) [31:0] $end
  $var wire 32 "I vertmat(1) [31:0] $end
  $var wire 32 "J vertmat(2) [31:0] $end
  $var wire 32 "K vertmat(3) [31:0] $end
  $var wire 32 "L vertmat(4) [31:0] $end
  $scope module v $end
   $var wire 32 # adjmat(0)(0) [31:0] $end
   $var wire 32 $ adjmat(0)(1) [31:0] $end
   $var wire 32 % adjmat(0)(2) [31:0] $end
   $var wire 32 & adjmat(0)(3) [31:0] $end
   $var wire 32 ' adjmat(0)(4) [31:0] $end
   $var wire 32 ( adjmat(1)(0) [31:0] $end
   $var wire 32 ) adjmat(1)(1) [31:0] $end
   $var wire 32 * adjmat(1)(2) [31:0] $end
   $var wire 32 + adjmat(1)(3) [31:0] $end
   $var wire 32 , adjmat(1)(4) [31:0] $end
   $var wire 32 - adjmat(2)(0) [31:0] $end
   $var wire 32 . adjmat(2)(1) [31:0] $end
   $var wire 32 / adjmat(2)(2) [31:0] $end
   $var wire 32 0 adjmat(2)(3) [31:0] $end
   $var wire 32 1 adjmat(2)(4) [31:0] $end
   $var wire 32 2 adjmat(3)(0) [31:0] $end
   $var wire 32 3 adjmat(3)(1) [31:0] $end
   $var wire 32 4 adjmat(3)(2) [31:0] $end
   $var wire 32 5 adjmat(3)(3) [31:0] $end
   $var wire 32 6 adjmat(3)(4) [31:0] $end
   $var wire 32 7 adjmat(4)(0) [31:0] $end
   $var wire 32 8 adjmat(4)(1) [31:0] $end
   $var wire 32 9 adjmat(4)(2) [31:0] $end
   $var wire 32 : adjmat(4)(3) [31:0] $end
   $var wire 32 ; adjmat(4)(4) [31:0] $end
   $var wire  1 ", clk $end
   $var wire  7 v d1 [6:0] $end
   $var wire  7 w d2 [6:0] $end
   $var wire  7 x d3 [6:0] $end
   $var wire  7 y d4 [6:0] $end
   $var wire  1 "M done $end
   $var wire 32 ~ dv1 [31:0] $end
   $var wire 32 "! dv2 [31:0] $end
   $var wire 32 "" dv3 [31:0] $end
   $var wire 32 "# dv4 [31:0] $end
   $var wire 32 z e1 [31:0] $end
   $var wire 32 { e2 [31:0] $end
   $var wire 32 | e3 [31:0] $end
   $var wire 32 } e4 [31:0] $end
   $var wire  7 p i [6:0] $end
   $var wire  7 q j [6:0] $end
   $var wire 32 E o_dv1 [31:0] $end
   $var wire 32 F o_dv2 [31:0] $end
   $var wire 32 G o_dv3 [31:0] $end
   $var wire 32 H o_dv4 [31:0] $end
   $var wire 32 A o_e1 [31:0] $end
   $var wire 32 B o_e2 [31:0] $end
   $var wire 32 C o_e3 [31:0] $end
   $var wire 32 D o_e4 [31:0] $end
   $var wire  1 "- reset $end
   $var wire  7 r s1 [6:0] $end
   $var wire  7 s s2 [6:0] $end
   $var wire  7 t s3 [6:0] $end
   $var wire  7 u s4 [6:0] $end
   $var wire  8 ". src [7:0] $end
   $var wire  5 o state [4:0] $end
   $var wire 32 "$ sv1 [31:0] $end
   $var wire 32 "% sv2 [31:0] $end
   $var wire 32 "& sv3 [31:0] $end
   $var wire 32 "' sv4 [31:0] $end
   $var wire 32 "N test [31:0] $end
   $var wire  4 I update_mask [3:0] $end
   $var wire 32 < vertmat(0) [31:0] $end
   $var wire 32 = vertmat(1) [31:0] $end
   $var wire 32 > vertmat(2) [31:0] $end
   $var wire 32 ? vertmat(3) [31:0] $end
   $var wire 32 @ vertmat(4) [31:0] $end
   $scope module relax $end
    $var wire 32 ~ dv1 [31:0] $end
    $var wire 32 "! dv2 [31:0] $end
    $var wire 32 "" dv3 [31:0] $end
    $var wire 32 "# dv4 [31:0] $end
    $var wire 32 A e1 [31:0] $end
    $var wire 32 B e2 [31:0] $end
    $var wire 32 C e3 [31:0] $end
    $var wire 32 D e4 [31:0] $end
    $var wire 32 E o_dv1 [31:0] $end
    $var wire 32 F o_dv2 [31:0] $end
    $var wire 32 G o_dv3 [31:0] $end
    $var wire 32 H o_dv4 [31:0] $end
    $var wire  7 r s1 [6:0] $end
    $var wire  7 s s2 [6:0] $end
    $var wire  7 t s3 [6:0] $end
    $var wire  7 u s4 [6:0] $end
    $var wire 25 j sum [24:0] $end
    $var wire 32 "$ sv1 [31:0] $end
    $var wire 32 "% sv2 [31:0] $end
    $var wire 32 "& sv3 [31:0] $end
    $var wire 32 "' sv4 [31:0] $end
    $var wire  1 k u_e1 $end
    $var wire  1 l u_e2 $end
    $var wire  1 m u_e3 $end
    $var wire  1 n u_e4 $end
    $var wire  4 I update_mask [3:0] $end
   $upscope $end
   $scope module sort $end
    $var wire  7 v d1 [6:0] $end
    $var wire  7 w d2 [6:0] $end
    $var wire  7 x d3 [6:0] $end
    $var wire  7 y d4 [6:0] $end
    $var wire 25 "( dv1 [24:0] $end
    $var wire 25 ") dv2 [24:0] $end
    $var wire 25 "* dv3 [24:0] $end
    $var wire 25 "+ dv4 [24:0] $end
    $var wire 32 z e1 [31:0] $end
    $var wire 32 { e2 [31:0] $end
    $var wire 32 | e3 [31:0] $end
    $var wire 32 } e4 [31:0] $end
    $var wire 32 A o_e1 [31:0] $end
    $var wire 32 B o_e2 [31:0] $end
    $var wire 32 C o_e3 [31:0] $end
    $var wire 32 D o_e4 [31:0] $end
    $var wire 32 J wi1 [31:0] $end
    $var wire 32 K wi2 [31:0] $end
    $var wire 32 L wi3 [31:0] $end
    $var wire 32 M wi4 [31:0] $end
    $var wire 32 N wi5 [31:0] $end
    $var wire 32 O wi6 [31:0] $end
    $var wire 32 P wi7 [31:0] $end
    $var wire 32 Q wi8 [31:0] $end
    $scope module c1 $end
     $var wire  7 v d1 [6:0] $end
     $var wire  7 w d2 [6:0] $end
     $var wire 25 "( dv1 [24:0] $end
     $var wire 25 ") dv2 [24:0] $end
     $var wire 32 z e1 [31:0] $end
     $var wire 32 { e2 [31:0] $end
     $var wire 32 J o_e1 [31:0] $end
     $var wire 32 K o_e2 [31:0] $end
     $var wire  1 T u_e1 $end
     $var wire  1 U u_e2 $end
     $var wire 31 R w1 [30:0] $end
     $var wire 31 S w2 [30:0] $end
    $upscope $end
    $scope module c2 $end
     $var wire  7 x d1 [6:0] $end
     $var wire  7 y d2 [6:0] $end
     $var wire 25 "* dv1 [24:0] $end
     $var wire 25 "+ dv2 [24:0] $end
     $var wire 32 | e1 [31:0] $end
     $var wire 32 } e2 [31:0] $end
     $var wire 32 L o_e1 [31:0] $end
     $var wire 32 M o_e2 [31:0] $end
     $var wire  1 X u_e1 $end
     $var wire  1 Y u_e2 $end
     $var wire 31 V w1 [30:0] $end
     $var wire 31 W w2 [30:0] $end
    $upscope $end
    $scope module c3 $end
     $var wire  7 v d1 [6:0] $end
     $var wire  7 x d2 [6:0] $end
     $var wire 25 "( dv1 [24:0] $end
     $var wire 25 "* dv2 [24:0] $end
     $var wire 32 J e1 [31:0] $end
     $var wire 32 L e2 [31:0] $end
     $var wire 32 N o_e1 [31:0] $end
     $var wire 32 O o_e2 [31:0] $end
     $var wire  1 \ u_e1 $end
     $var wire  1 ] u_e2 $end
     $var wire 31 Z w1 [30:0] $end
     $var wire 31 [ w2 [30:0] $end
    $upscope $end
    $scope module c4 $end
     $var wire  7 w d1 [6:0] $end
     $var wire  7 y d2 [6:0] $end
     $var wire 25 ") dv1 [24:0] $end
     $var wire 25 "+ dv2 [24:0] $end
     $var wire 32 K e1 [31:0] $end
     $var wire 32 M e2 [31:0] $end
     $var wire 32 P o_e1 [31:0] $end
     $var wire 32 Q o_e2 [31:0] $end
     $var wire  1 ` u_e1 $end
     $var wire  1 a u_e2 $end
     $var wire 31 ^ w1 [30:0] $end
     $var wire 31 _ w2 [30:0] $end
    $upscope $end
    $scope module c5 $end
     $var wire  7 v d1 [6:0] $end
     $var wire  7 y d2 [6:0] $end
     $var wire 25 "( dv1 [24:0] $end
     $var wire 25 "+ dv2 [24:0] $end
     $var wire 32 N e1 [31:0] $end
     $var wire 32 Q e2 [31:0] $end
     $var wire 32 A o_e1 [31:0] $end
     $var wire 32 B o_e2 [31:0] $end
     $var wire  1 d u_e1 $end
     $var wire  1 e u_e2 $end
     $var wire 31 b w1 [30:0] $end
     $var wire 31 c w2 [30:0] $end
    $upscope $end
    $scope module c6 $end
     $var wire  7 w d1 [6:0] $end
     $var wire  7 x d2 [6:0] $end
     $var wire 25 ") dv1 [24:0] $end
     $var wire 25 "* dv2 [24:0] $end
     $var wire 32 P e1 [31:0] $end
     $var wire 32 O e2 [31:0] $end
     $var wire 32 C o_e1 [31:0] $end
     $var wire 32 D o_e2 [31:0] $end
     $var wire  1 h u_e1 $end
     $var wire  1 i u_e2 $end
     $var wire 31 f w1 [30:0] $end
     $var wire 31 g w2 [30:0] $end
    $upscope $end
   $upscope $end
  $upscope $end
 $upscope $end
$enddefinitions $end


#0
b00000000000000000000000000000000 #
b00000000000000000000000000000000 $
b00000000000000000000000000000000 %
b00000000000000000000000000000000 &
b00000000000000000000000000000000 '
b00000000000000000000000000000000 (
b00000000000000000000000000000000 )
b00000000000000000000000000000000 *
b00000000000000000000000000000000 +
b00000000000000000000000000000000 ,
b00000000000000000000000000000000 -
b00000000000000000000000000000000 .
b00000000000000000000000000000000 /
b00000000000000000000000000000000 0
b00000000000000000000000000000000 1
b00000000000000000000000000000000 2
b00000000000000000000000000000000 3
b00000000000000000000000000000000 4
b00000000000000000000000000000000 5
b00000000000000000000000000000000 6
b00000000000000000000000000000000 7
b00000000000000000000000000000000 8
b00000000000000000000000000000000 9
b00000000000000000000000000000000 :
b00000000000000000000000000000000 ;
b00000000000000000000000000000000 <
b00000000000000000000000000000000 =
b00000000000000000000000000000000 >
b00000000000000000000000000000000 ?
b00000000000000000000000000000000 @
b00000000000000000000000000000000 E
b00000000000000000000000000000000 F
b00000000000000000000000000000000 G
b00000000000000000000000000000000 H
b0000 I
b0000000000000000000000000000000 R
b0000000000000000000000000000000 S
0T
0U
b0000000000000000000000000000000 V
b0000000000000000000000000000000 W
0X
0Y
b00000000000000000000000000000000 J
b00000000000000000000000000000000 L
b0000000000000000000000000000000 Z
b0000000000000000000000000000000 [
0\
0]
b00000000000000000000000000000000 K
b00000000000000000000000000000000 M
b0000000000000000000000000000000 ^
b0000000000000000000000000000000 _
0`
0a
b00000000000000000000000000000000 N
b00000000000000000000000000000000 Q
b0000000000000000000000000000000 b
b0000000000000000000000000000000 c
0d
0e
b00000000000000000000000000000000 P
b00000000000000000000000000000000 O
b0000000000000000000000000000000 f
b0000000000000000000000000000000 g
0h
0i
b00000000000000000000000000000000 A
b00000000000000000000000000000000 B
b00000000000000000000000000000000 C
b00000000000000000000000000000000 D
b0000000000000000000000000 j
0k
0l
0m
0n
b00000 o
b0000000 p
b0000000 q
b0000000 r
b0000000 s
b0000000 t
b0000000 u
b00000000000000000000000000000000 ~
b00000000000000000000000000000000 "!
b00000000000000000000000000000000 ""
b00000000000000000000000000000000 "#
b00000000000000000000000000000000 "$
b00000000000000000000000000000000 "%
b00000000000000000000000000000000 "&
b00000000000000000000000000000000 "'
b00000000000000000000000000000000 z
b00000000000000000000000000000000 {
b00000000000000000000000000000000 |
b00000000000000000000000000000000 }
b0000000 v
b0000000 y
b0000000000000000000000000 "(
b0000000000000000000000000 "+
b0000000 w
b0000000 x
b0000000000000000000000000 ")
b0000000000000000000000000 "*
1",
1"-
b00000001 ".
b10000000000000000000000000000000 "/
b10000000000000000000000000000100 "0
b10000000000000000000000000000011 "1
b10000000000000000000000000000000 "2
b00000000000000000000000000000000 "3
b10000000000000000000000000000000 "4
b10000000000000000000000000000000 "5
b10000000000000000000000000000000 "6
b10000000000000000000000000000100 "7
b00000000000000000000000000000000 "8
b10000000000000000000000000000000 "9
b10000000000000000000000000000000 ":
b10000000000000000000000000000000 ";
b10000000000000000000000000000110 "<
b00000000000000000000000000000000 "=
b10000000000000000000000000000000 ">
b10000000000000000000000000000000 "?
b10000000000000000000000000000000 "@
b10000000000000000000000000000000 "A
b00000000000000000000000000000000 "B
b00000000000000000000000000000000 "C
b00000000000000000000000000000000 "D
b00000000000000000000000000000000 "E
b00000000000000000000000000000000 "F
b00000000000000000000000000000000 "G
b00000000000000000000000000000000 "H
b00000000000000000000000000000000 "I
b00000000000000000000000000000000 "J
b00000000000000000000000000000000 "K
b00000000000000000000000000000000 "L
0"M
b00000000000000000000000000000000 "N
#1
b10000000000000000000000000000000 #
b10000000000000000000000000000100 $
b10000000000000000000000000000011 %
b10000000000000000000000000000000 &
b10000000000000000000000000000000 (
b10000000000000000000000000000000 )
b10000000000000000000000000000000 *
b10000000000000000000000000000100 +
b10000000000000000000000000000000 -
b10000000000000000000000000000000 .
b10000000000000000000000000000000 /
b10000000000000000000000000000110 0
b10000000000000000000000000000000 2
b10000000000000000000000000000000 3
b10000000000000000000000000000000 4
b10000000000000000000000000000000 5
0",
#2
1",
0"-
#3
0",
#4
b00000000111111111111111111111111 <
b0000001 p
1",
b00000000111111111111111111111111 "H
#5
0",
#6
b0000010 p
1",
#7
0",
#8
b00000000111111111111111111111111 >
b0000011 p
1",
b00000000111111111111111111111111 "J
#9
0",
#10
b00000000111111111111111111111111 ?
b0000100 p
1",
b00000000111111111111111111111111 "K
#11
0",
#12
b00001 o
b0000000 p
1",
#13
0",
#14
b00010 o
b00000000111111111111111111111111 "$
1",
#15
0",
#16
1T
b10000000000000000000000000000000 J
1\
b10000000000000000000000000000000 N
1d
b10000000000000000000000000000000 A
b0111111111111111111111111 j
1k
b00011 o
b0000001 q
b00000000111111111111111111111111 ~
b10000000000000000000000000000000 z
b0111111111111111111111111 "(
1",
#17
0",
#18
b00100 o
b00000000111111111111111111111111 "%
b0000001 w
1",
#19
0",
#20
b0000000000000000000000000000100 S
1U
b10000000000000100000000000000100 K
b0000000000000100000000000000100 ^
1`
b10000000000000100000000000000100 P
b0000000000000100000000000000100 f
1h
b10000000000000100000000000000100 C
b0000000100000000000000100 j
1m
b00101 o
b0000010 q
b10000000000000000000000000000100 {
1",
#21
0",
#22
b1000000100000000000000011 j
b00110 o
b00000000111111111111111111111111 "&
b0000010 x
1",
#23
0",
#24
b0000000000000000000000000000011 V
1X
b10000000000000100000000000000011 L
b0000000000000100000000000000011 [
1]
b10000000000000100000000000000011 O
b0000000000000100000000000000011 g
1i
b10000000000000000000000000000011 D
b0000000000000000000000011 j
1n
b00111 o
b0000011 q
b00000000111111111111111111111111 ""
b10000000000000000000000000000011 |
b0111111111111111111111111 "*
1",
#25
0",
#26
b1000000000000000000000010 j
b01000 o
b00000000111111111111111111111111 "'
b0000011 y
1",
#27
0",
#28
1Y
b10000000000000000000000000000000 M
1a
b10000000000000000000000000000000 Q
1e
b10000000000000000000000000000000 B
1l
b01001 o
b0000001 p
b0000000 q
b00000000111111111111111111111111 "#
b10000000000000000000000000000000 }
b0111111111111111111111111 "+
1",
#29
0",
#30
b01010 o
1",
#31
0",
#32
b01011 o
1",
#33
0",
#34
b01100 o
1",
#35
0",
#36
b00001 o
1",
#37
0",
#38
b00000010000000000000000000000000 E
b0001 I
b00010 o
b0000001 r
b00000000000000000000000000000000 "$
1",
#39
0",
#40
b00011 o
b0000001 q
1",
#41
0",
#42
b00100 o
b0000001 s
b00000000000000000000000000000000 "%
1",
#43
0",
#44
b0000000000000000000000000000000 S
b10000000000000000000000000000000 K
b0000000000000000000000000000000 ^
b10000000000000000000000000000000 P
b0000000000000000000000000000000 f
b10000000000000000000000000000000 C
b10000000000000100000000000000011 D
b1000000100000000000000010 j
b00101 o
b0000010 q
b10000000000000000000000000000000 {
1",
#45
0",
#46
b00000010000000000000000000000000 G
b0101 I
b00110 o
b0000001 t
b00000000000000000000000000000000 "&
1",
#47
0",
#48
b0000000000000000000000000000000 V
b10000000000000000000000000000000 L
b0000000000000000000000000000000 [
b10000000000000000000000000000000 O
b0000000000000000000000000000000 g
b10000000000000000000000000000000 D
b0111111111111111111111111 j
b00111 o
b0000011 q
b10000000000000000000000000000000 |
1",
#49
0",
#50
b00000010000000000000000000000000 H
b1101 I
b0000000000000000000000000 j
b01000 o
b0000001 u
b00000000000000000000000000000000 "'
1",
#51
0",
#52
b0000000000000000000000000000100 W
b10000000000000100000000000000100 M
b0000000000000100000000000000100 _
b10000000000000100000000000000100 Q
b0000000000000100000000000000100 c
b10000000000000100000000000000100 B
b01001 o
b0000010 p
b0000000 q
b10000000000000000000000000000100 }
1",
#53
0",
#54
b00000010000000000000000000000000 =
b01010 o
1",
b00000010000000000000000000000000 "I
#55
0",
#56
b01011 o
1",
#57
0",
#58
b01100 o
1",
#59
0",
#60
b00001 o
1",
#61
0",
#62
b00010 o
b0000010 r
b00000000111111111111111111111111 "$
1",
#63
0",
#64
b00011 o
b0000001 q
1",
#65
0",
#66
b00100 o
b0000010 s
b00000000111111111111111111111111 "%
1",
#67
0",
#68
b00000101000000100000000000000011 F
b1111 I
b00101 o
b0000010 q
b00000010000000000000000000000000 "!
1",
#69
0",
#70
b00110 o
b0000010 t
b00000000111111111111111111111111 "&
1",
#71
0",
#72
b00111 o
b0000011 q
1",
#73
0",
#74
b0111111111111111111111111 j
b01000 o
b0000010 u
b00000000111111111111111111111111 "'
1",
#75
0",
#76
b00000101000000100000000000000101 F
b0000000000000000000000000000110 W
b10000000000000100000000000000110 M
b0000000000000100000000000000110 _
b10000000000000100000000000000110 Q
b0000000000000100000000000000110 c
b10000000000000100000000000000110 B
b01001 o
b0000011 p
b0000000 q
b10000000000000000000000000000110 }
1",
#77
0",
#78
b00000010000000000000000000000000 >
b01010 o
1",
b00000010000000000000000000000000 "J
#79
0",
#80
b01011 o
1",
#81
0",
#82
b01100 o
1",
#83
0",
#84
b00001 o
1",
#85
0",
#86
b00010 o
b0000011 r
1",
#87
0",
#88
b00011 o
b0000001 q
1",
#89
0",
#90
b00000111000000100000000000000101 F
b00100 o
b0000011 s
1",
#91
0",
#92
b00101 o
b0000010 q
1",
#93
0",
#94
b00110 o
b0000011 t
1",
#95
0",
#96
b00000110111111111111111111111111 G
b00111 o
b0000011 q
b00000010000000000000000000000000 ""
b0000000000000000000000000 "*
1",
#97
0",
#98
b01000 o
b0000011 u
1",
#99
0",
#100
b00000110111111111111111111111111 F
b0000000000000000000000000000000 W
b10000000000000000000000000000000 M
b0000000000000000000000000000000 _
b10000000000000000000000000000000 Q
b0000000000000000000000000000000 c
b10000000000000000000000000000000 B
b01001 o
b0000100 p
b0000000 q
b10000000000000000000000000000000 }
1",
#101
0",
#102
b00000010000000000000000000000000 ?
b01010 o
1",
b00000010000000000000000000000000 "K
#103
0",
#104
b01011 o
1",
#105
0",
#106
b01100 o
1",
#107
0",
#108
b00001 o
1",
#109
0",
#110
b00001000000000000000000000000000 E
b00010 o
b0000100 r
b00000000000000000000000000000000 "$
1",
#111
0",
#112
0T
b00000000000000000000000000000000 J
0\
b00000000000000000000000000000000 N
0d
b00000000000000000000000000000000 A
0k
b00011 o
b0000001 q
b00000000000000000000000000000000 z
1",
#113
0",
#114
b00001000000000000000000000000000 F
b00100 o
b0000100 s
b00000000000000000000000000000000 "%
1",
#115
0",
#116
0U
b00000000000000000000000000000000 K
0`
b00000000000000000000000000000000 P
0h
b00000000000000000000000000000000 C
0m
b00101 o
b0000010 q
b00000000000000000000000000000000 {
1",
#117
0",
#118
b00110 o
b0000100 t
b00000000000000000000000000000000 "&
1",
#119
0",
#120
0X
b00000000000000000000000000000000 L
0]
b00000000000000000000000000000000 O
0i
b00000000000000000000000000000000 D
b0000000000000000000000000 j
0n
b00111 o
b0000011 q
b00000000000000000000000000000000 |
1",
#121
0",
#122
b01000 o
b0000100 u
b00000000000000000000000000000000 "'
1",
#123
0",
#124
0Y
b00000000000000000000000000000000 M
0a
b00000000000000000000000000000000 Q
0e
b00000000000000000000000000000000 B
0l
b01001 o
b0000101 p
b0000000 q
b00000010000000000000000000000000 "#
b00000000000000000000000000000000 }
b0000000000000000000000000 "+
1",
#125
0",
#126
b00001000000000000000000000000000 @
b01010 o
1",
b00001000000000000000000000000000 "L
#127
0",
#128
b01011 o
1",
#129
0",
#130
b01100 o
1",
#131
0",
#132
b00001 o
1",
#133
0",
#134
b00010 o
b0000101 r
1",
#135
0",
#136
b00001010000000000000000000000000 E
1T
b10000000000000000000000000000000 J
1\
b10000000000000000000000000000000 N
1d
b10000000000000000000000000000000 A
1k
b00011 o
b0000001 q
b10000000000000000000000000000000 z
1",
#137
0",
#138
b00100 o
b0000101 s
1",
#139
0",
#140
b00001000000000100000000000000100 G
b0000000000000000000000000000100 S
1U
b10000000000000100000000000000100 K
b0000000000000100000000000000100 ^
1`
b10000000000000100000000000000100 P
b0000000000000100000000000000100 f
1h
b10000000000000100000000000000100 C
b0000000100000000000000100 j
1m
b00101 o
b0000010 q
b10000000000000000000000000000100 {
1",
#141
0",
#142
b00001010000000100000000000000100 G
b00110 o
b0000101 t
1",
#143
0",
#144
b00001000000000000000000000000011 H
b0000000000000000000000000000011 V
1X
b10000000000000100000000000000011 L
b0000000000000100000000000000011 [
1]
b10000000000000100000000000000011 O
b0000000000000100000000000000011 g
1i
b10000000000000000000000000000011 D
b0000000000000000000000011 j
1n
b00111 o
b0000011 q
b10000000000000000000000000000011 |
1",
#145
0",
#146
b00001010000000000000000000000011 H
b01000 o
b0000101 u
1",
#147
0",
#148
b00001010000000000000000000000000 F
1Y
b10000000000000000000000000000000 M
1a
b10000000000000000000000000000000 Q
1e
b10000000000000000000000000000000 B
1l
b01001 o
b0000110 p
b0000000 q
b10000000000000000000000000000000 }
1",
#149
0",
#150
b01010 o
1",
#151
0",
#152
b01011 o
1",
#153
0",
#154
b01100 o
1",
#155
0",
#156
b00001 o
1",
#157
0",
#158
b00001100000000000000000000000000 E
b00010 o
b0000110 r
1",
#159
0",
#160
b00011 o
b0000001 q
1",
#161
0",
#162
b00001100000000000000000000000000 F
b00100 o
b0000110 s
1",
#163
0",
#164
b00101 o
b0000010 q
1",
#165
0",
#166
b00001100000000100000000000000100 G
b00110 o
b0000110 t
1",
#167
0",
#168
b00111 o
b0000011 q
1",
#169
0",
#170
b00001100000000000000000000000011 H
b01000 o
b0000110 u
1",
#171
0",
#172
b01001 o
b0000111 p
b0000000 q
1",
#173
0",
#174
b01010 o
1",
#175
0",
#176
b01011 o
1",
#177
0",
#178
b01100 o
1",
#179
0",
#180
b00001 o
1",
#181
0",
#182
b00001110000000000000000000000000 E
b00010 o
b0000111 r
1",
#183
0",
#184
b00011 o
b0000001 q
1",
#185
0",
#186
b00001110000000000000000000000000 F
b00100 o
b0000111 s
1",
#187
0",
#188
b00101 o
b0000010 q
1",
#189
0",
#190
b00001110000000100000000000000100 G
b00110 o
b0000111 t
1",
#191
0",
#192
b00111 o
b0000011 q
1",
#193
0",
#194
b00001110000000000000000000000011 H
b01000 o
b0000111 u
1",
#195
0",
#196
b01001 o
b0001000 p
b0000000 q
1",
#197
0",
#198
b01010 o
1",
#199
0",
#200
b01011 o
1",
