src/fpga/Bellman.vcd
$version Generated by VerilatedVcd $end
$date Sun Apr  3 22:12:01 2016
 $end
$timescale 1ns $end

 $scope module TOP $end
  $var wire 32 K adjmat(0)(0) [31:0] $end
  $var wire 32 L adjmat(0)(1) [31:0] $end
  $var wire 32 M adjmat(0)(2) [31:0] $end
  $var wire 32 N adjmat(0)(3) [31:0] $end
  $var wire 32 O adjmat(0)(4) [31:0] $end
  $var wire 32 P adjmat(1)(0) [31:0] $end
  $var wire 32 Q adjmat(1)(1) [31:0] $end
  $var wire 32 R adjmat(1)(2) [31:0] $end
  $var wire 32 S adjmat(1)(3) [31:0] $end
  $var wire 32 T adjmat(1)(4) [31:0] $end
  $var wire 32 U adjmat(2)(0) [31:0] $end
  $var wire 32 V adjmat(2)(1) [31:0] $end
  $var wire 32 W adjmat(2)(2) [31:0] $end
  $var wire 32 X adjmat(2)(3) [31:0] $end
  $var wire 32 Y adjmat(2)(4) [31:0] $end
  $var wire 32 Z adjmat(3)(0) [31:0] $end
  $var wire 32 [ adjmat(3)(1) [31:0] $end
  $var wire 32 \ adjmat(3)(2) [31:0] $end
  $var wire 32 ] adjmat(3)(3) [31:0] $end
  $var wire 32 ^ adjmat(3)(4) [31:0] $end
  $var wire 32 _ adjmat(4)(0) [31:0] $end
  $var wire 32 ` adjmat(4)(1) [31:0] $end
  $var wire 32 a adjmat(4)(2) [31:0] $end
  $var wire 32 b adjmat(4)(3) [31:0] $end
  $var wire 32 c adjmat(4)(4) [31:0] $end
  $var wire  1 H clk $end
  $var wire  1 i done $end
  $var wire  1 I reset $end
  $var wire  7 J src [6:0] $end
  $var wire 32 j test [31:0] $end
  $var wire 32 d vertmat(0) [31:0] $end
  $var wire 32 e vertmat(1) [31:0] $end
  $var wire 32 f vertmat(2) [31:0] $end
  $var wire 32 g vertmat(3) [31:0] $end
  $var wire 32 h vertmat(4) [31:0] $end
  $scope module v $end
   $var wire 32 # adjmat(0)(0) [31:0] $end
   $var wire 32 $ adjmat(0)(1) [31:0] $end
   $var wire 32 % adjmat(0)(2) [31:0] $end
   $var wire 32 & adjmat(0)(3) [31:0] $end
   $var wire 32 ' adjmat(0)(4) [31:0] $end
   $var wire 32 ( adjmat(1)(0) [31:0] $end
   $var wire 32 ) adjmat(1)(1) [31:0] $end
   $var wire 32 * adjmat(1)(2) [31:0] $end
   $var wire 32 + adjmat(1)(3) [31:0] $end
   $var wire 32 , adjmat(1)(4) [31:0] $end
   $var wire 32 - adjmat(2)(0) [31:0] $end
   $var wire 32 . adjmat(2)(1) [31:0] $end
   $var wire 32 / adjmat(2)(2) [31:0] $end
   $var wire 32 0 adjmat(2)(3) [31:0] $end
   $var wire 32 1 adjmat(2)(4) [31:0] $end
   $var wire 32 2 adjmat(3)(0) [31:0] $end
   $var wire 32 3 adjmat(3)(1) [31:0] $end
   $var wire 32 4 adjmat(3)(2) [31:0] $end
   $var wire 32 5 adjmat(3)(3) [31:0] $end
   $var wire 32 6 adjmat(3)(4) [31:0] $end
   $var wire 32 7 adjmat(4)(0) [31:0] $end
   $var wire 32 8 adjmat(4)(1) [31:0] $end
   $var wire 32 9 adjmat(4)(2) [31:0] $end
   $var wire 32 : adjmat(4)(3) [31:0] $end
   $var wire 32 ; adjmat(4)(4) [31:0] $end
   $var wire  1 H clk $end
   $var wire  1 i done $end
   $var wire 25 F dvw [24:0] $end
   $var wire 32 G e [31:0] $end
   $var wire  7 B i [6:0] $end
   $var wire  7 C j [6:0] $end
   $var wire  7 D k [6:0] $end
   $var wire  1 I reset $end
   $var wire  7 J src [6:0] $end
   $var wire  5 A state [4:0] $end
   $var wire 25 E svw [24:0] $end
   $var wire 32 j test [31:0] $end
   $var wire 32 < vertmat(0) [31:0] $end
   $var wire 32 = vertmat(1) [31:0] $end
   $var wire 32 > vertmat(2) [31:0] $end
   $var wire 32 ? vertmat(3) [31:0] $end
   $var wire 32 @ vertmat(4) [31:0] $end
  $upscope $end
 $upscope $end
$enddefinitions $end


#0
b00000000000000000000000000000000 #
b00000000000000000000000000000000 $
b00000000000000000000000000000000 %
b00000000000000000000000000000000 &
b00000000000000000000000000000000 '
b00000000000000000000000000000000 (
b00000000000000000000000000000000 )
b00000000000000000000000000000000 *
b00000000000000000000000000000000 +
b00000000000000000000000000000000 ,
b00000000000000000000000000000000 -
b00000000000000000000000000000000 .
b00000000000000000000000000000000 /
b00000000000000000000000000000000 0
b00000000000000000000000000000000 1
b00000000000000000000000000000000 2
b00000000000000000000000000000000 3
b00000000000000000000000000000000 4
b00000000000000000000000000000000 5
b00000000000000000000000000000000 6
b00000000000000000000000000000000 7
b00000000000000000000000000000000 8
b00000000000000000000000000000000 9
b00000000000000000000000000000000 :
b00000000000000000000000000000000 ;
b00000000000000000000000000000000 <
b00000000000000000000000000000000 =
b00000000000000000000000000000000 >
b00000000000000000000000000000000 ?
b00000000000000000000000000000000 @
b00000 A
b0000000 B
b0000000 C
b0000000 D
b0000000000000000000000000 E
b0000000000000000000000000 F
b00000000000000000000000000000000 G
1H
1I
b0000000 J
b00000000000000000000000000000000 K
b00000000000000000000000000000100 L
b00000000000000000000000000000011 M
b00000000000000000000000000000000 N
b00000000000000000000000000000000 O
b00000000000000000000000000000000 P
b00000000000000000000000000000000 Q
b00000000000000000000000000000000 R
b00000000000000000000000000000100 S
b00000000000000000000000000000000 T
b00000000000000000000000000000000 U
b00000000000000000000000000000000 V
b00000000000000000000000000000000 W
b00000000000000000000000000000110 X
b00000000000000000000000000000000 Y
b00000000000000000000000000000000 Z
b00000000000000000000000000000000 [
b00000000000000000000000000000000 \
b00000000000000000000000000000000 ]
b00000000000000000000000000000000 ^
b00000000000000000000000000000000 _
b00000000000000000000000000000000 `
b00000000000000000000000000000000 a
b00000000000000000000000000000000 b
b00000000000000000000000000000000 c
b00000000000000000000000000000000 d
b00000000000000000000000000000000 e
b00000000000000000000000000000000 f
b00000000000000000000000000000000 g
b00000000000000000000000000000000 h
0i
b00000000000000000000000000000000 j
#1
b00000000000000000000000000000100 $
b00000000000000000000000000000011 %
b00000000000000000000000000000100 +
b00000000000000000000000000000110 0
0H
#2
1H
0I
#3
0H
#4
b0000001 D
1H
#5
0H
#6
b00000000111111111111111111111111 =
b0000010 D
1H
b00000000111111111111111111111111 e
#7
0H
#8
b00000000111111111111111111111111 >
b0000011 D
1H
b00000000111111111111111111111111 f
#9
0H
#10
b00000000111111111111111111111111 ?
b0000100 D
1H
b00000000111111111111111111111111 g
#11
0H
#12
b00001 A
b0000000 D
1H
#13
0H
#14
b00010 A
1H
#15
0H
#16
b00011 A
1H
#17
0H
#18
b00100 A
1H
#19
0H
#20
b00001 A
b0000001 C
1H
#21
0H
#22
b00010 A
b00000000000000000000000000000100 G
1H
#23
0H
#24
b00011 A
b0111111111111111111111111 F
1H
#25
0H
#26
b00100 A
1H
#27
0H
#28
b00000000000000000000000000000100 =
b00001 A
b0000010 C
1H
b00000000000000000000000000000100 e
#29
0H
#30
b00010 A
b00000000000000000000000000000011 G
1H
#31
0H
#32
b00011 A
1H
#33
0H
#34
b00100 A
1H
#35
0H
#36
b00000000000000000000000000000011 >
b00001 A
b0000011 C
1H
b00000000000000000000000000000011 f
#37
0H
#38
b00010 A
b00000000000000000000000000000000 G
1H
#39
0H
#40
b00011 A
1H
#41
0H
#42
b00100 A
1H
#43
0H
#44
b00001 A
b0000100 C
1H
#45
0H
#46
b00010 A
1H
#47
0H
#48
b00011 A
b0000000000000000000000000 F
1H
#49
0H
#50
b00100 A
1H
#51
0H
#52
b00001 A
b0000001 B
b0000000 C
1H
#53
0H
#54
b00010 A
b0000000000000000000000100 E
1H
#55
0H
#56
b00011 A
1H
#57
0H
#58
b00100 A
1H
#59
0H
#60
b00001 A
b0000001 C
1H
#61
0H
#62
b00010 A
1H
#63
0H
#64
b00011 A
b0000000000000000000000100 F
1H
#65
0H
#66
b00100 A
1H
#67
0H
#68
b00001 A
b0000010 C
1H
#69
0H
#70
b00010 A
1H
#71
0H
#72
b00011 A
b0000000000000000000000011 F
1H
#73
0H
#74
b00100 A
1H
#75
0H
#76
b00001 A
b0000011 C
1H
#77
0H
#78
b00010 A
b00000000000000000000000000000100 G
1H
#79
0H
#80
b00011 A
b0111111111111111111111111 F
1H
#81
0H
#82
b00000010111111111111111111111111 ?
b00100 A
1H
b00000010111111111111111111111111 g
#83
0H
#84
b00000010000000000000000000001000 ?
b00001 A
b0000100 C
1H
b00000010000000000000000000001000 g
#85
0H
#86
b00010 A
b00000000000000000000000000000000 G
1H
#87
0H
#88
b00011 A
b0000000000000000000000000 F
1H
#89
0H
#90
b00100 A
1H
#91
0H
#92
b00001 A
b0000010 B
b0000000 C
1H
#93
0H
#94
b00010 A
b0000000000000000000000011 E
1H
#95
0H
#96
b00011 A
1H
#97
0H
#98
b00100 A
1H
#99
0H
#100
b00001 A
b0000001 C
1H
#101
0H
#102
b00010 A
1H
#103
0H
#104
b00011 A
b0000000000000000000000100 F
1H
#105
0H
#106
b00100 A
1H
#107
0H
#108
b00001 A
b0000010 C
1H
#109
0H
#110
b00010 A
1H
#111
0H
#112
b00011 A
b0000000000000000000000011 F
1H
#113
0H
#114
b00100 A
1H
#115
0H
#116
b00001 A
b0000011 C
1H
#117
0H
#118
b00010 A
b00000000000000000000000000000110 G
1H
#119
0H
#120
b00011 A
b0000000000000000000001000 F
1H
#121
0H
#122
b00100 A
1H
#123
0H
#124
b00001 A
b0000100 C
1H
#125
0H
#126
b00010 A
b00000000000000000000000000000000 G
1H
#127
0H
#128
b00011 A
b0000000000000000000000000 F
1H
#129
0H
#130
b00100 A
1H
#131
0H
#132
b00001 A
b0000011 B
b0000000 C
1H
#133
0H
#134
b00010 A
b0000000000000000000001000 E
1H
#135
0H
#136
b00011 A
1H
#137
0H
#138
b00100 A
1H
#139
0H
#140
b00001 A
b0000001 C
1H
#141
0H
#142
b00010 A
1H
#143
0H
#144
b00011 A
b0000000000000000000000100 F
1H
#145
0H
#146
b00100 A
1H
#147
0H
#148
b00001 A
b0000010 C
1H
#149
0H
#150
b00010 A
1H
#151
0H
#152
b00011 A
b0000000000000000000000011 F
1H
#153
0H
#154
b00100 A
1H
#155
0H
#156
b00001 A
b0000011 C
1H
#157
0H
#158
b00010 A
1H
#159
0H
#160
b00011 A
b0000000000000000000001000 F
1H
#161
0H
#162
b00100 A
1H
#163
0H
#164
b00001 A
b0000000 B
b0000000 C
b0000001 D
1H
#165
0H
#166
b00010 A
b0000000000000000000000000 E
1H
#167
0H
#168
b00011 A
b0000000000000000000000000 F
1H
#169
0H
#170
b00100 A
1H
#171
0H
#172
b00001 A
b0000001 C
1H
#173
0H
#174
b00010 A
b00000000000000000000000000000100 G
1H
#175
0H
#176
b00011 A
b0000000000000000000000100 F
1H
#177
0H
#178
b00100 A
1H
#179
0H
#180
b00001 A
b0000010 C
1H
#181
0H
#182
b00010 A
b00000000000000000000000000000011 G
1H
#183
0H
#184
b00011 A
b0000000000000000000000011 F
1H
#185
0H
#186
b00100 A
1H
#187
0H
#188
b00001 A
b0000011 C
1H
#189
0H
#190
b00010 A
b00000000000000000000000000000000 G
1H
#191
0H
#192
b00011 A
b0000000000000000000001000 F
1H
#193
0H
#194
b00100 A
1H
#195
0H
#196
b00001 A
b0000100 C
1H
#197
0H
#198
b00010 A
1H
#199
0H
#200
b00011 A
b0000000000000000000000000 F
1H
#201
0H
#202
b00100 A
1H
#203
0H
#204
b00001 A
b0000001 B
b0000000 C
1H
#205
0H
#206
b00010 A
b0000000000000000000000100 E
1H
#207
0H
#208
b00011 A
1H
#209
0H
#210
b00100 A
1H
#211
0H
#212
b00001 A
b0000001 C
1H
#213
0H
#214
b00010 A
1H
#215
0H
#216
b00011 A
b0000000000000000000000100 F
1H
#217
0H
#218
b00100 A
1H
#219
0H
#220
b00001 A
b0000010 C
1H
#221
0H
#222
b00010 A
1H
#223
0H
#224
b00011 A
b0000000000000000000000011 F
1H
#225
0H
#226
b00100 A
1H
#227
0H
#228
b00001 A
b0000011 C
1H
#229
0H
#230
b00010 A
b00000000000000000000000000000100 G
1H
#231
0H
#232
b00011 A
b0000000000000000000001000 F
1H
#233
0H
#234
b00100 A
1H
#235
0H
#236
b00001 A
b0000100 C
1H
#237
0H
#238
b00010 A
b00000000000000000000000000000000 G
1H
#239
0H
#240
b00011 A
b0000000000000000000000000 F
1H
#241
0H
#242
b00100 A
1H
#243
0H
#244
b00001 A
b0000010 B
b0000000 C
1H
#245
0H
#246
b00010 A
b0000000000000000000000011 E
1H
#247
0H
#248
b00011 A
1H
#249
0H
#250
b00100 A
1H
#251
0H
#252
b00001 A
b0000001 C
1H
#253
0H
#254
b00010 A
1H
#255
0H
#256
b00011 A
b0000000000000000000000100 F
1H
#257
0H
#258
b00100 A
1H
#259
0H
#260
b00001 A
b0000010 C
1H
#261
0H
#262
b00010 A
1H
#263
0H
#264
b00011 A
b0000000000000000000000011 F
1H
#265
0H
#266
b00100 A
1H
#267
0H
#268
b00001 A
b0000011 C
1H
#269
0H
#270
b00010 A
b00000000000000000000000000000110 G
1H
#271
0H
#272
b00011 A
b0000000000000000000001000 F
1H
#273
0H
#274
b00100 A
1H
#275
0H
#276
b00001 A
b0000100 C
1H
#277
0H
#278
b00010 A
b00000000000000000000000000000000 G
1H
#279
0H
#280
b00011 A
b0000000000000000000000000 F
1H
#281
0H
#282
b00100 A
1H
#283
0H
#284
b00001 A
b0000011 B
b0000000 C
1H
#285
0H
#286
b00010 A
b0000000000000000000001000 E
1H
#287
0H
#288
b00011 A
1H
#289
0H
#290
b00100 A
1H
#291
0H
#292
b00001 A
b0000001 C
1H
#293
0H
#294
b00010 A
1H
#295
0H
#296
b00011 A
b0000000000000000000000100 F
1H
#297
0H
#298
b00100 A
1H
#299
0H
#300
b00001 A
b0000010 C
1H
#301
0H
#302
b00010 A
1H
#303
0H
#304
b00011 A
b0000000000000000000000011 F
1H
#305
0H
#306
b00100 A
1H
#307
0H
#308
b00001 A
b0000011 C
1H
#309
0H
#310
b00010 A
1H
#311
0H
#312
b00011 A
b0000000000000000000001000 F
1H
#313
0H
#314
b00100 A
1H
#315
0H
#316
b00001 A
b0000000 B
b0000000 C
b0000010 D
1H
#317
0H
#318
b00010 A
b0000000000000000000000000 E
1H
#319
0H
#320
b00011 A
b0000000000000000000000000 F
1H
#321
0H
#322
b00100 A
1H
#323
0H
#324
b00001 A
b0000001 C
1H
#325
0H
#326
b00010 A
b00000000000000000000000000000100 G
1H
#327
0H
#328
b00011 A
b0000000000000000000000100 F
1H
#329
0H
#330
b00100 A
1H
#331
0H
#332
b00001 A
b0000010 C
1H
#333
0H
#334
b00010 A
b00000000000000000000000000000011 G
1H
#335
0H
#336
b00011 A
b0000000000000000000000011 F
1H
#337
0H
#338
b00100 A
1H
#339
0H
#340
b00001 A
b0000011 C
1H
#341
0H
#342
b00010 A
b00000000000000000000000000000000 G
1H
#343
0H
#344
b00011 A
b0000000000000000000001000 F
1H
#345
0H
#346
b00100 A
1H
#347
0H
#348
b00001 A
b0000100 C
1H
#349
0H
#350
b00010 A
1H
#351
0H
#352
b00011 A
b0000000000000000000000000 F
1H
#353
0H
#354
b00100 A
1H
#355
0H
#356
b00001 A
b0000001 B
b0000000 C
1H
#357
0H
#358
b00010 A
b0000000000000000000000100 E
1H
#359
0H
#360
b00011 A
1H
#361
0H
#362
b00100 A
1H
#363
0H
#364
b00001 A
b0000001 C
1H
#365
0H
#366
b00010 A
1H
#367
0H
#368
b00011 A
b0000000000000000000000100 F
1H
#369
0H
#370
b00100 A
1H
#371
0H
#372
b00001 A
b0000010 C
1H
#373
0H
#374
b00010 A
1H
#375
0H
#376
b00011 A
b0000000000000000000000011 F
1H
#377
0H
#378
b00100 A
1H
#379
0H
#380
b00001 A
b0000011 C
1H
#381
0H
#382
b00010 A
b00000000000000000000000000000100 G
1H
#383
0H
#384
b00011 A
b0000000000000000000001000 F
1H
#385
0H
#386
b00100 A
1H
#387
0H
#388
b00001 A
b0000100 C
1H
#389
0H
#390
b00010 A
b00000000000000000000000000000000 G
1H
#391
0H
#392
b00011 A
b0000000000000000000000000 F
1H
#393
0H
#394
b00100 A
1H
#395
0H
#396
b00001 A
b0000010 B
b0000000 C
1H
#397
0H
#398
b00010 A
b0000000000000000000000011 E
1H
#399
0H
#400
b00011 A
1H
#401
0H
#402
b00100 A
1H
#403
0H
#404
b00001 A
b0000001 C
1H
#405
0H
#406
b00010 A
1H
#407
0H
#408
b00011 A
b0000000000000000000000100 F
1H
#409
0H
#410
b00100 A
1H
#411
0H
#412
b00001 A
b0000010 C
1H
#413
0H
#414
b00010 A
1H
#415
0H
#416
b00011 A
b0000000000000000000000011 F
1H
#417
0H
#418
b00100 A
1H
#419
0H
#420
b00001 A
b0000011 C
1H
#421
0H
#422
b00010 A
b00000000000000000000000000000110 G
1H
#423
0H
#424
b00011 A
b0000000000000000000001000 F
1H
#425
0H
#426
b00100 A
1H
#427
0H
#428
b00001 A
b0000100 C
1H
#429
0H
#430
b00010 A
b00000000000000000000000000000000 G
1H
#431
0H
#432
b00011 A
b0000000000000000000000000 F
1H
#433
0H
#434
b00100 A
1H
#435
0H
#436
b00001 A
b0000011 B
b0000000 C
1H
#437
0H
#438
b00010 A
b0000000000000000000001000 E
1H
#439
0H
#440
b00011 A
1H
#441
0H
#442
b00100 A
1H
#443
0H
#444
b00001 A
b0000001 C
1H
#445
0H
#446
b00010 A
1H
#447
0H
#448
b00011 A
b0000000000000000000000100 F
1H
#449
0H
#450
b00100 A
1H
#451
0H
#452
b00001 A
b0000010 C
1H
#453
0H
#454
b00010 A
1H
#455
0H
#456
b00011 A
b0000000000000000000000011 F
1H
#457
0H
#458
b00100 A
1H
#459
0H
#460
b00001 A
b0000011 C
1H
#461
0H
#462
b00010 A
1H
#463
0H
#464
b00011 A
b0000000000000000000001000 F
1H
#465
0H
#466
b00100 A
1H
#467
0H
#468
b00101 A
1H
#469
0H
#470
1H
1i
