src/fpga/Container.vcd
$version Generated by VerilatedVcd $end
$date Sat May  7 17:04:25 2016
 $end
$timescale 1ns $end

 $scope module TOP $end
  $var wire  8 l VGA_B [7:0] $end
  $var wire  1 p VGA_BLANK_n $end
  $var wire  1 m VGA_CLK $end
  $var wire  8 k VGA_G [7:0] $end
  $var wire  1 n VGA_HS $end
  $var wire  8 j VGA_R [7:0] $end
  $var wire  1 q VGA_SYNC_n $end
  $var wire  1 o VGA_VS $end
  $var wire  3 i address [2:0] $end
  $var wire  1 h chipselect $end
  $var wire  1 d clk $end
  $var wire  6 s frame_char [5:0] $end
  $var wire  1 r frame_we $end
  $var wire  1 e reset $end
  $var wire 32 t test [31:0] $end
  $var wire  1 g write $end
  $var wire 32 f writedata [31:0] $end
  $scope module v $end
   $var wire  8 l VGA_B [7:0] $end
   $var wire  1 p VGA_BLANK_n $end
   $var wire  1 m VGA_CLK $end
   $var wire  8 k VGA_G [7:0] $end
   $var wire  1 n VGA_HS $end
   $var wire  8 j VGA_R [7:0] $end
   $var wire  1 q VGA_SYNC_n $end
   $var wire  1 o VGA_VS $end
   $var wire  3 i address [2:0] $end
   $var wire  1 h chipselect $end
   $var wire  1 d clk $end
   $var wire  1 E container_done $end
   $var wire  1 F container_reset $end
   $var wire  6 s frame_char [5:0] $end
   $var wire  1 r frame_we $end
   $var wire  6 D frame_x [5:0] $end
   $var wire  6 # frame_y [5:0] $end
   $var wire  4 @ next_state [3:0] $end
   $var wire  1 e reset $end
   $var wire  7 u src [6:0] $end
   $var wire  4 ? state [3:0] $end
   $var wire 32 t test [31:0] $end
   $var wire  7 B u_dst [6:0] $end
   $var wire 32 C u_e [31:0] $end
   $var wire  7 A u_src [6:0] $end
   $var wire  1 g write $end
   $var wire 32 f writedata [31:0] $end
   $scope module container $end
    $var wire  7 / adjmat_col_addr [6:0] $end
    $var wire 32 - adjmat_data [31:0] $end
    $var wire 32 $ adjmat_q [31:0] $end
    $var wire  7 . adjmat_row_addr [6:0] $end
    $var wire  1 0 adjmat_we $end
    $var wire  7 T bellman_adjmat_col_addr [6:0] $end
    $var wire  7 S bellman_adjmat_row_addr [6:0] $end
    $var wire  1 I bellman_done $end
    $var wire  1 K bellman_reset $end
    $var wire  7 1 bellman_vertmat_addr_a [6:0] $end
    $var wire  7 2 bellman_vertmat_addr_b [6:0] $end
    $var wire 40 3 bellman_vertmat_data_b [39:0] $end
    $var wire  1 5 bellman_vertmat_we_b $end
    $var wire  1 d clk $end
    $var wire  1 E container_done $end
    $var wire  1 F container_reset $end
    $var wire  7 V cycle_adjmat_col_addr [6:0] $end
    $var wire  7 U cycle_adjmat_row_addr [6:0] $end
    $var wire  1 J cycle_done $end
    $var wire  1 L cycle_reset $end
    $var wire  7 U cycle_vertmat_addr_a [6:0] $end
    $var wire  7 6 cycle_vertmat_addr_b [6:0] $end
    $var wire 40 7 cycle_vertmat_data_b [39:0] $end
    $var wire  1 9 cycle_vertmat_we_b $end
    $var wire  6 s frame_char [5:0] $end
    $var wire  1 r frame_we $end
    $var wire  6 D frame_x [5:0] $end
    $var wire  6 # frame_y [5:0] $end
    $var wire  5 H next_state [4:0] $end
    $var wire  1 N print_done $end
    $var wire  1 M print_reset $end
    $var wire  7 : print_vertmat_addr_b [6:0] $end
    $var wire 40 ; print_vertmat_data_b [39:0] $end
    $var wire  1 = print_vertmat_we_b $end
    $var wire  7 u src [6:0] $end
    $var wire  5 G state [4:0] $end
    $var wire 32 t test [31:0] $end
    $var wire  7 B u_dst [6:0] $end
    $var wire 32 C u_e [31:0] $end
    $var wire  7 A u_src [6:0] $end
    $var wire  7 ) vertmat_addr_a [6:0] $end
    $var wire  7 * vertmat_addr_b [6:0] $end
    $var wire 40 % vertmat_data_a [39:0] $end
    $var wire 40 ' vertmat_data_b [39:0] $end
    $var wire 40 O vertmat_q_a [39:0] $end
    $var wire 40 Q vertmat_q_b [39:0] $end
    $var wire  1 + vertmat_we_a $end
    $var wire  1 , vertmat_we_b $end
    $scope module adjmat $end
     $var wire 32 y ADDR_WIDTH [31:0] $end
     $var wire 32 x DATA_WIDTH [31:0] $end
     $var wire 14 > addr [13:0] $end
     $var wire 14 c addr_reg [13:0] $end
     $var wire  1 d clk $end
     $var wire  7 / col_addr [6:0] $end
     $var wire 32 - data [31:0] $end
     $var wire 32 $ q [31:0] $end
     $var wire  7 . row_addr [6:0] $end
     $var wire  1 0 we $end
    $upscope $end
    $scope module bellman $end
     $var wire  7 T adjmat_col_addr [6:0] $end
     $var wire 32 $ adjmat_q [31:0] $end
     $var wire  7 S adjmat_row_addr [6:0] $end
     $var wire  1 I bellman_done $end
     $var wire  1 K bellman_reset $end
     $var wire  1 d clk $end
     $var wire 32 Z dvw [31:0] $end
     $var wire 32 $ e [31:0] $end
     $var wire  7 S i [6:0] $end
     $var wire  7 T j [6:0] $end
     $var wire  7 X k [6:0] $end
     $var wire  7 u src [6:0] $end
     $var wire  4 W state [3:0] $end
     $var wire 32 Y svw [31:0] $end
     $var wire  7 1 vertmat_addr_a [6:0] $end
     $var wire  7 2 vertmat_addr_b [6:0] $end
     $var wire 40 % vertmat_data_a [39:0] $end
     $var wire 40 3 vertmat_data_b [39:0] $end
     $var wire 40 O vertmat_q_a [39:0] $end
     $var wire 40 Q vertmat_q_b [39:0] $end
     $var wire  1 + vertmat_we_a $end
     $var wire  1 5 vertmat_we_b $end
    $upscope $end
    $scope module cycle_detect $end
     $var wire  7 V adjmat_col_addr [6:0] $end
     $var wire 32 $ adjmat_q [31:0] $end
     $var wire  7 U adjmat_row_addr [6:0] $end
     $var wire  1 d clk $end
     $var wire  1 J cycle_done $end
     $var wire  1 L cycle_reset $end
     $var wire 32 Z dvw [31:0] $end
     $var wire 32 $ e [31:0] $end
     $var wire  7 U i [6:0] $end
     $var wire  7 V j [6:0] $end
     $var wire  7 \ k [6:0] $end
     $var wire  7 ] l [6:0] $end
     $var wire  4 [ state [3:0] $end
     $var wire 32 Y svw [31:0] $end
     $var wire  7 U vertmat_addr_a [6:0] $end
     $var wire  7 6 vertmat_addr_b [6:0] $end
     $var wire 40 7 vertmat_data_b [39:0] $end
     $var wire 40 O vertmat_q_a [39:0] $end
     $var wire 40 Q vertmat_q_b [39:0] $end
     $var wire  1 9 vertmat_we_b $end
    $upscope $end
    $scope module print_cycle $end
     $var wire  1 d clk $end
     $var wire  6 s frame_char [5:0] $end
     $var wire  1 r frame_we $end
     $var wire  6 D frame_x [5:0] $end
     $var wire  6 # frame_y [5:0] $end
     $var wire  7 _ i [6:0] $end
     $var wire  7 ` j [6:0] $end
     $var wire  7 a k [6:0] $end
     $var wire  7 b l [6:0] $end
     $var wire  1 N print_done $end
     $var wire  1 M print_reset $end
     $var wire  6 D px [5:0] $end
     $var wire  6 # py [5:0] $end
     $var wire  4 ^ state [3:0] $end
     $var wire  7 : vertmat_addr_b [6:0] $end
     $var wire 40 ; vertmat_data_b [39:0] $end
     $var wire 40 Q vertmat_q_b [39:0] $end
     $var wire  1 = vertmat_we_b $end
    $upscope $end
    $scope module vertmat $end
     $var wire 32 w ADDR_WIDTH [31:0] $end
     $var wire 32 v DATA_WIDTH [31:0] $end
     $var wire  7 ) addr_a [6:0] $end
     $var wire  7 * addr_b [6:0] $end
     $var wire  1 d clk $end
     $var wire 40 % data_a [39:0] $end
     $var wire 40 ' data_b [39:0] $end
     $var wire 40 O q_a [39:0] $end
     $var wire 40 Q q_b [39:0] $end
     $var wire 32 t test [31:0] $end
     $var wire  1 + we_a $end
     $var wire  1 , we_b $end
    $upscope $end
   $upscope $end
  $upscope $end
 $upscope $end
$enddefinitions $end


#0
b0000000000000000000000000000000000000000 '
b0000000 )
b0000000 *
0,
b00000000000000000000000000000000 -
b0000000 .
b0000000 /
00
b0000000 1
b0000000 2
b0000000000000000000000000000000000000000 3
05
b0000000 6
b0000000000000000000000000000000000000000 7
09
b0000000 :
b0000000000000000000000000000000000000000 ;
0=
b000000 #
b0000000000000000000000000000000000000000 %
0+
b00000000000000000000000000000000 $
b00000000000000 >
b0000 ?
b0000 @
b0000000 A
b0000000 B
b00000000000000000000000000000000 C
0E
0F
b00000 G
b00000 H
0I
0J
0K
0L
0M
0N
b0000 W
b0000000 S
b0000000 T
b0000000 X
b00000000000000000000000000000000 Y
b00000000000000000000000000000000 Z
b0000 [
b0000000 U
b0000000 V
b0000000 \
b0000000 ]
b0000 ^
b0000000 _
b0000000 `
b0000000 a
b0000000 b
b000000 D
b0000000000000000000000000000000000000000 O
b0000000000000000000000000000000000000000 Q
b00000000000000 c
1e
b00000000000000000000000000000000 f
0g
0h
b000 i
b00000000 j
b00000000 k
b00000000 l
0m
0n
0o
0p
0q
b000000 s
0r
b00000000000000000000000000000000 t
1d
b0000000 u
b00000000000000000000000000100111 v
b00000000000000000000000000000110 w
b00000000000000000000000000011111 x
b00000000000000000000000000001101 y
#1
10
b111111 #
1+
0d
#2
b0000001 1
b0000001 6
b0000001 :
b0000000001110111011111111111111111111111 %
b0010 ?
b0001 @
1F
b00001 G
b0000001 X
b0001 [
b0000001 V
b1111111 \
b0001 ^
b0000001 `
b1111111 a
0e
b00000000000000000000000000000001 f
1g
1h
1d
#3
0d
#4
b0000001 /
b0000010 1
b00000000000001 >
b0001 ?
b0000001 B
b00000 G
b0000010 X
b01110111011111111111111111111111 Y
b0010 [
b0000001 \
b0010 ^
b0000001 a
b0000000001110111011111111111111111111111 O
0g
0h
1d
#5
0d
#6
b0000011 1
0F
b0000011 X
b01110111011111111111111111111111 Z
b0000 [
b0000 ^
b0000000001110111011111111111111111111111 Q
b00000000000001 c
1d
#7
0d
#8
b0000001 .
b0000000 /
b0000100 1
b0000010 6
b0000010 :
b00000000000111 >
b00001 G
b0000100 X
b0001 [
b0000010 V
b1111111 \
b0001 ^
b0000010 `
b1111111 a
1d
#9
0d
#10
b0000000 .
00
b0000101 1
b00000000000000 >
b00110 G
b00010 H
1K
b0000101 X
b0010 [
b0000010 \
b0010 ^
b0000010 a
b00000000000111 c
1d
#11
0d
#12
b0000000 1
b0000000000000000000000000000000000000000 %
b00010 G
b0000000 X
b0000 [
b0000 ^
b00000000000000 c
b00000000000000000000000000000100 f
1g
1h
b001 i
1d
#13
0d
#14
b0000011 6
b0000011 :
b0000 ?
b00000000000000000000000000000100 C
0K
b00000000000000000000000000000000 Y
b0001 [
b0000011 V
b1111111 \
b0001 ^
b0000011 `
b1111111 a
b0000000000000000000000000000000000000000 O
0g
0h
1d
#15
0d
#16
b0000001 )
b0000001 1
b0000000001110111011111111111111111111111 %
b0010 ?
1F
b0000001 X
b00000000000000000000000000000000 Z
b0010 [
b0000011 \
b0010 ^
b0000011 a
b0000000000000000000000000000000000000000 Q
1d
#17
0d
#18
b0000000 )
b00000000000000000000000000000100 -
b0000001 /
10
b0000010 1
b00000000000001 >
b0001 ?
b00000 G
b0000010 X
b01110111011111111111111111111111 Y
b0000 [
b0000 ^
b0000000001110111011111111111111111111111 O
1d
#19
0d
#20
b0000011 1
b0000100 6
b0000100 :
b00000000000000000000000000000100 $
0F
b0000011 X
b0001 [
b0000100 V
b1111111 \
b0001 ^
b0000100 `
b1111111 a
b00000000000001 c
1d
#21
0d
#22
b00000000000000000000000000000000 -
b0000001 .
b0000000 /
b0000100 1
b00000000000111 >
b00001 G
b0000100 X
b01110111011111111111111111111111 Z
b0010 [
b0000100 \
b0010 ^
b0000100 a
b0000000001110111011111111111111111111111 Q
1d
#23
0d
#24
b0000000 .
00
b0000101 1
b00000000000000000000000000000000 $
b00000000000000 >
b00110 G
1K
b0000101 X
b0000 [
b0000 ^
b00000000000111 c
1d
#25
0d
#26
b0000000 1
b0000101 6
b0000101 :
b0000000000000000000000000000000000000000 %
b00010 G
b0000000 X
b0001 [
b0000101 V
b1111111 \
b0001 ^
b0000101 `
b1111111 a
b00000000000000 c
1d
#27
0d
#28
0K
b00000000000000000000000000000000 Y
b0010 [
b0000101 \
b0010 ^
b0000101 a
b0000000000000000000000000000000000000000 O
1d
#29
0d
#30
b0000001 )
b0000001 1
b0000000001110111011111111111111111111111 %
b0000001 X
b00000000000000000000000000000000 Z
b0000 [
b0000 ^
b0000000000000000000000000000000000000000 Q
1d
#31
0d
#32
b0000010 )
b0000010 1
b0000110 6
b0000110 :
b0000010 X
b01110111011111111111111111111111 Y
b0001 [
b0000110 V
b1111111 \
b0001 ^
b0000110 `
b1111111 a
b0000000001110111011111111111111111111111 O
1d
#33
0d
#34
b0000011 )
b0000011 1
b0000011 X
b0010 [
b0000110 \
b0010 ^
b0000110 a
1d
#35
0d
#36
b0000100 )
b0000100 1
b0000100 X
b0000 [
b0000 ^
1d
#37
0d
#38
b0000101 )
b0000101 1
b0000000 6
b0000101 X
b0001 [
b0000001 U
b0000000 V
b1111111 \
b1001 ^
b1111111 a
1d
#39
0d
#40
b0000110 )
b0000110 1
b0000000000000000000000000000000000000000 %
1N
b0000110 X
b0010 [
b0000000 \
1d
#41
0d
#42
b0000000 )
b0000000 1
0+
b0011 W
b0000000 X
b00000000000000000000000000000000 Y
b0000 [
b0000000000000000000000000000000000000000 O
1d
#43
0d
#44
b0000001 6
b0001 W
b0001 [
b0000001 V
b1111111 \
1d
#45
0d
#46
b0000001 *
b0000001 /
b0000001 2
b00000000000001 >
b0010 W
b0000001 T
b0010 [
b0000001 \
1d
#47
0d
#48
b0000000000000000000000000000000000000100 '
1,
b0000000000000000000000000000000000000100 3
15
b00000000000000000000000000000100 $
b0011 W
b01110111011111111111111111111111 Z
b0000 [
b0000000001110111011111111111111111111111 Q
b00000000000001 c
1d
#49
0d
#50
b0000000000000000000000000000000000000000 '
0,
b0000000000000000000000000000000000000000 3
05
b0000010 6
b0001 W
b00000000000000000000000000000100 Z
b0001 [
b0000010 V
b1111111 \
b0000000000000000000000000000000000000100 Q
1d
#51
0d
#52
b0000010 *
b0000010 /
b0000010 2
b00000000000010 >
b0010 W
b0000010 T
b0010 [
b0000010 \
1d
#53
0d
#54
b00000000000000000000000000000000 $
b0011 W
b01110111011111111111111111111111 Z
b0000 [
b0000000001110111011111111111111111111111 Q
b00000000000010 c
1d
#55
0d
#56
b0000011 6
b0001 W
b0001 [
b0000011 V
b1111111 \
1d
#57
0d
#58
b0000011 *
b0000011 /
b0000011 2
b00000000000011 >
b0010 W
b0000011 T
b0010 [
b0000011 \
1d
#59
0d
#60
b0011 W
b0000 [
b00000000000011 c
1d
#61
0d
#62
b0000100 6
b0001 W
b0001 [
b0000100 V
b1111111 \
1d
#63
0d
#64
b0000100 *
b0000100 /
b0000100 2
b00000000000100 >
b0010 W
b0000100 T
b0010 [
b0000100 \
1d
#65
0d
#66
b0011 W
b0000 [
b00000000000100 c
1d
#67
0d
#68
b0000101 6
b0001 W
b0001 [
b0000101 V
b1111111 \
1d
#69
0d
#70
b0000101 *
b0000101 /
b0000101 2
b00000000000101 >
b0010 W
b0000101 T
b0010 [
b0000101 \
1d
#71
0d
#72
b0011 W
b0000 [
b00000000000101 c
1d
#73
0d
#74
b0000110 6
b0001 W
b0001 [
b0000110 V
b1111111 \
1d
#75
0d
#76
b0000110 *
b0000110 /
b0000110 2
b00000000000110 >
b0010 W
b0000110 T
b0010 [
b0000110 \
1d
#77
0d
#78
b0011 W
b00000000000000000000000000000000 Z
b0000 [
b0000000000000000000000000000000000000000 Q
b00000000000110 c
1d
#79
0d
#80
b0000000 6
b0001 W
b0001 [
b0000010 U
b0000000 V
b1111111 \
1d
#81
0d
#82
b0000001 )
b0000000 *
b0000001 .
b0000000 /
b0000001 1
b0000000 2
b00000000000111 >
b0010 W
b0000001 S
b0000000 T
b0010 [
b0000000 \
1d
#83
0d
#84
b0011 W
b00000000000000000000000000000100 Y
b0000 [
b0000000000000000000000000000000000000100 O
b00000000000111 c
1d
#85
0d
#86
b0000001 6
b0001 W
b0001 [
b0000001 V
b1111111 \
1d
#87
0d
#88
b0000001 *
b0000001 /
b0000001 2
b00000000001000 >
b0010 W
b0000001 T
b0010 [
b0000001 \
1d
#89
0d
#90
b0011 W
b00000000000000000000000000000100 Z
b0000 [
b0000000000000000000000000000000000000100 Q
b00000000001000 c
1d
#91
0d
#92
b0000010 6
b0001 W
b0001 [
b0000010 V
b1111111 \
1d
#93
0d
#94
b0000010 *
b0000010 /
b0000010 2
b00000000001001 >
b0010 W
b0000010 T
b0010 [
b0000010 \
1d
#95
0d
#96
b0011 W
b01110111011111111111111111111111 Z
b0000 [
b0000000001110111011111111111111111111111 Q
b00000000001001 c
1d
#97
0d
#98
b0000011 6
b0001 W
b0001 [
b0000011 V
b1111111 \
1d
#99
0d
#100
b0000011 *
b0000011 /
b0000011 2
b00000000001010 >
b0010 W
b0000011 T
b0010 [
b0000011 \
1d
#101
0d
#102
b0011 W
b0000 [
b00000000001010 c
1d
#103
0d
#104
b0000100 6
b0001 W
b0001 [
b0000100 V
b1111111 \
1d
#105
0d
#106
b0000100 *
b0000100 /
b0000100 2
b00000000001011 >
b0010 W
b0000100 T
b0010 [
b0000100 \
1d
#107
0d
#108
b0011 W
b0000 [
b00000000001011 c
1d
#109
0d
#110
b0000101 6
b0001 W
b0001 [
b0000101 V
b1111111 \
1d
#111
0d
#112
b0000101 *
b0000101 /
b0000101 2
b00000000001100 >
b0010 W
b0000101 T
b0010 [
b0000101 \
1d
#113
0d
#114
b0011 W
b0000 [
b00000000001100 c
1d
#115
0d
#116
b0000110 6
b0001 W
b0001 [
b0000110 V
b1111111 \
1d
#117
0d
#118
b0000110 *
b0000110 /
b0000110 2
b00000000001101 >
b0010 W
b0000110 T
b0010 [
b0000110 \
1d
#119
0d
#120
b0011 W
b00000000000000000000000000000000 Z
b0000 [
b0000000000000000000000000000000000000000 Q
b00000000001101 c
1d
#121
0d
#122
b0000000 6
b0001 W
b0001 [
b0000011 U
b0000000 V
b1111111 \
1d
#123
0d
#124
b0000010 )
b0000000 *
b0000010 .
b0000000 /
b0000010 1
b0000000 2
b00000000001110 >
b0010 W
b0000010 S
b0000000 T
b0010 [
b0000000 \
1d
#125
0d
#126
b0011 W
b01110111011111111111111111111111 Y
b0000 [
b0000000001110111011111111111111111111111 O
b00000000001110 c
1d
#127
0d
#128
b0000001 6
b0001 W
b0001 [
b0000001 V
b1111111 \
1d
#129
0d
#130
b0000001 *
b0000001 /
b0000001 2
b00000000001111 >
b0010 W
b0000001 T
b0010 [
b0000001 \
1d
#131
0d
#132
b0011 W
b00000000000000000000000000000100 Z
b0000 [
b0000000000000000000000000000000000000100 Q
b00000000001111 c
1d
#133
0d
#134
b0000010 6
b0001 W
b0001 [
b0000010 V
b1111111 \
1d
#135
0d
#136
b0000010 *
b0000010 /
b0000010 2
b00000000010000 >
b0010 W
b0000010 T
b0010 [
b0000010 \
1d
#137
0d
#138
b0011 W
b01110111011111111111111111111111 Z
b0000 [
b0000000001110111011111111111111111111111 Q
b00000000010000 c
1d
#139
0d
#140
b0000011 6
b0001 W
b0001 [
b0000011 V
b1111111 \
1d
#141
0d
#142
b0000011 *
b0000011 /
b0000011 2
b00000000010001 >
b0010 W
b0000011 T
b0010 [
b0000011 \
1d
#143
0d
#144
b0011 W
b0000 [
b00000000010001 c
1d
#145
0d
#146
b0000100 6
b0001 W
b0001 [
b0000100 V
b1111111 \
1d
#147
0d
#148
b0000100 *
b0000100 /
b0000100 2
b00000000010010 >
b0010 W
b0000100 T
b0010 [
b0000100 \
1d
#149
0d
#150
b0011 W
b0000 [
b00000000010010 c
1d
#151
0d
#152
b0000101 6
b0001 W
b0001 [
b0000101 V
b1111111 \
1d
#153
0d
#154
b0000101 *
b0000101 /
b0000101 2
b00000000010011 >
b0010 W
b0000101 T
b0010 [
b0000101 \
1d
#155
0d
#156
b0011 W
b0000 [
b00000000010011 c
1d
#157
0d
#158
b0000110 6
b0001 W
b0001 [
b0000110 V
b1111111 \
1d
#159
0d
#160
b0000110 *
b0000110 /
b0000110 2
b00000000010100 >
b0010 W
b0000110 T
b0010 [
b0000110 \
1d
#161
0d
#162
b0011 W
b00000000000000000000000000000000 Z
b0000 [
b0000000000000000000000000000000000000000 Q
b00000000010100 c
1d
#163
0d
#164
b0000000 6
b0001 W
b0001 [
b0000100 U
b0000000 V
b1111111 \
1d
#165
0d
#166
b0000011 )
b0000000 *
b0000011 .
b0000000 /
b0000011 1
b0000000 2
b00000000010101 >
b0010 W
b0000011 S
b0000000 T
b0010 [
b0000000 \
1d
#167
0d
#168
b0011 W
b0000 [
b00000000010101 c
1d
#169
0d
#170
b0000001 6
b0001 W
b0001 [
b0000001 V
b1111111 \
1d
#171
0d
#172
b0000001 *
b0000001 /
b0000001 2
b00000000010110 >
b0010 W
b0000001 T
b0010 [
b0000001 \
1d
#173
0d
#174
b0011 W
b00000000000000000000000000000100 Z
b0000 [
b0000000000000000000000000000000000000100 Q
b00000000010110 c
1d
#175
0d
#176
b0000010 6
b0001 W
b0001 [
b0000010 V
b1111111 \
1d
#177
0d
#178
b0000010 *
b0000010 /
b0000010 2
b00000000010111 >
b0010 W
b0000010 T
b0010 [
b0000010 \
1d
#179
0d
#180
b0011 W
b01110111011111111111111111111111 Z
b0000 [
b0000000001110111011111111111111111111111 Q
b00000000010111 c
1d
#181
0d
#182
b0000011 6
b0001 W
b0001 [
b0000011 V
b1111111 \
1d
#183
0d
#184
b0000011 *
b0000011 /
b0000011 2
b00000000011000 >
b0010 W
b0000011 T
b0010 [
b0000011 \
1d
#185
0d
#186
b0011 W
b0000 [
b00000000011000 c
1d
#187
0d
#188
b0000100 6
b0001 W
b0001 [
b0000100 V
b1111111 \
1d
#189
0d
#190
b0000100 *
b0000100 /
b0000100 2
b00000000011001 >
b0010 W
b0000100 T
b0010 [
b0000100 \
1d
#191
0d
#192
b0011 W
b0000 [
b00000000011001 c
1d
#193
0d
#194
b0000101 6
b0001 W
b0001 [
b0000101 V
b1111111 \
1d
#195
0d
#196
b0000101 *
b0000101 /
b0000101 2
b00000000011010 >
b0010 W
b0000101 T
b0010 [
b0000101 \
1d
#197
0d
#198
b0011 W
b0000 [
b00000000011010 c
1d
#199
0d
#200
b0000110 6
b0001 W
b0001 [
b0000110 V
b1111111 \
1d
#201
0d
#202
b0000110 *
b0000110 /
b0000110 2
b00000000011011 >
b0010 W
b0000110 T
b0010 [
b0000110 \
1d
#203
0d
#204
b0011 W
b00000000000000000000000000000000 Z
b0000 [
b0000000000000000000000000000000000000000 Q
b00000000011011 c
1d
#205
0d
#206
b0000000 6
b0001 W
b0001 [
b0000101 U
b0000000 V
b1111111 \
1d
#207
0d
#208
b0000100 )
b0000000 *
b0000100 .
b0000000 /
b0000100 1
b0000000 2
b00000000011100 >
b0010 W
b0000100 S
b0000000 T
b0010 [
b0000000 \
1d
#209
0d
#210
b0011 W
b0000 [
b00000000011100 c
1d
#211
0d
#212
b0000001 6
b0001 W
b0001 [
b0000001 V
b1111111 \
1d
#213
0d
#214
b0000001 *
b0000001 /
b0000001 2
b00000000011101 >
b0010 W
b0000001 T
b0010 [
b0000001 \
1d
#215
0d
#216
b0011 W
b00000000000000000000000000000100 Z
b0000 [
b0000000000000000000000000000000000000100 Q
b00000000011101 c
1d
#217
0d
#218
b0000010 6
b0001 W
b0001 [
b0000010 V
b1111111 \
1d
#219
0d
#220
b0000010 *
b0000010 /
b0000010 2
b00000000011110 >
b0010 W
b0000010 T
b0010 [
b0000010 \
1d
#221
0d
#222
b0011 W
b01110111011111111111111111111111 Z
b0000 [
b0000000001110111011111111111111111111111 Q
b00000000011110 c
1d
#223
0d
#224
b0000011 6
b0001 W
b0001 [
b0000011 V
b1111111 \
1d
#225
0d
#226
b0000011 *
b0000011 /
b0000011 2
b00000000011111 >
b0010 W
b0000011 T
b0010 [
b0000011 \
1d
#227
0d
#228
b0011 W
b0000 [
b00000000011111 c
1d
#229
0d
#230
b0000100 6
b0001 W
b0001 [
b0000100 V
b1111111 \
1d
#231
0d
#232
b0000100 *
b0000100 /
b0000100 2
b00000000100000 >
b0010 W
b0000100 T
b0010 [
b0000100 \
1d
#233
0d
#234
b0011 W
b0000 [
b00000000100000 c
1d
#235
0d
#236
b0000101 6
b0001 W
b0001 [
b0000101 V
b1111111 \
1d
#237
0d
#238
b0000101 *
b0000101 /
b0000101 2
b00000000100001 >
b0010 W
b0000101 T
b0010 [
b0000101 \
1d
#239
0d
#240
b0011 W
b0000 [
b00000000100001 c
1d
#241
0d
#242
b0000110 6
b0001 W
b0001 [
b0000110 V
b1111111 \
1d
#243
0d
#244
b0000110 *
b0000110 /
b0000110 2
b00000000100010 >
b0010 W
b0000110 T
b0010 [
b0000110 \
1d
#245
0d
#246
b0011 W
b00000000000000000000000000000000 Z
b0000 [
b0000000000000000000000000000000000000000 Q
b00000000100010 c
1d
#247
0d
#248
b0000000 6
b0001 W
b0001 [
b0000110 U
b0000000 V
b1111111 \
1d
#249
0d
#250
b0000101 )
b0000000 *
b0000101 .
b0000000 /
b0000101 1
b0000000 2
b00000000100011 >
b0010 W
b0000101 S
b0000000 T
b0010 [
b0000000 \
1d
#251
0d
#252
b0011 W
b0000 [
b00000000100011 c
1d
#253
0d
#254
b0000001 6
b0001 W
b0001 [
b0000001 V
b1111111 \
1d
#255
0d
#256
b0000001 *
b0000001 /
b0000001 2
b00000000100100 >
b0010 W
b0000001 T
b0010 [
b0000001 \
1d
#257
0d
#258
b0011 W
b00000000000000000000000000000100 Z
b0000 [
b0000000000000000000000000000000000000100 Q
b00000000100100 c
1d
#259
0d
#260
b0000010 6
b0001 W
b0001 [
b0000010 V
b1111111 \
1d
#261
0d
#262
b0000010 *
b0000010 /
b0000010 2
b00000000100101 >
b0010 W
b0000010 T
b0010 [
b0000010 \
1d
#263
0d
#264
b0011 W
b01110111011111111111111111111111 Z
b0000 [
b0000000001110111011111111111111111111111 Q
b00000000100101 c
1d
#265
0d
#266
b0000011 6
b0001 W
b0001 [
b0000011 V
b1111111 \
1d
#267
0d
#268
b0000011 *
b0000011 /
b0000011 2
b00000000100110 >
b0010 W
b0000011 T
b0010 [
b0000011 \
1d
#269
0d
#270
b0011 W
b0000 [
b00000000100110 c
1d
#271
0d
#272
b0000100 6
b0001 W
b0001 [
b0000100 V
b1111111 \
1d
#273
0d
#274
b0000100 *
b0000100 /
b0000100 2
b00000000100111 >
b0010 W
b0000100 T
b0010 [
b0000100 \
1d
#275
0d
#276
b0011 W
b0000 [
b00000000100111 c
1d
#277
0d
#278
b0000101 6
b0001 W
b0001 [
b0000101 V
b1111111 \
1d
#279
0d
#280
b0000101 *
b0000101 /
b0000101 2
b00000000101000 >
b0010 W
b0000101 T
b0010 [
b0000101 \
1d
#281
0d
#282
b0011 W
b0000 [
b00000000101000 c
1d
#283
0d
#284
b0000110 6
b0001 W
b0001 [
b0000110 V
b1111111 \
1d
#285
0d
#286
b0000110 *
b0000110 /
b0000110 2
b00000000101001 >
b0010 W
b0000110 T
b0010 [
b0000110 \
1d
#287
0d
#288
b0011 W
b00000000000000000000000000000000 Z
b0000 [
b0000000000000000000000000000000000000000 Q
b00000000101001 c
1d
#289
0d
#290
b0001 W
b0110 [
b1111111 \
1d
#291
0d
#292
b0000110 )
b0000000 *
b0000110 .
b0000000 /
b0000110 1
b0000000 2
b00000000101010 >
1J
b0010 W
b0000110 S
b0000000 T
1d
#293
0d
#294
b0011 W
b00000000000000000000000000000000 Y
b0000000000000000000000000000000000000000 O
b00000000101010 c
1d
#295
0d
#296
b0001 W
1d
#297
0d
#298
b0000001 *
b0000001 /
b0000001 2
b00000000101011 >
b0010 W
b0000001 T
1d
#299
0d
#300
b0011 W
b00000000000000000000000000000100 Z
b0000000000000000000000000000000000000100 Q
b00000000101011 c
1d
#301
0d
#302
b0001 W
1d
#303
0d
#304
b0000010 *
b0000010 /
b0000010 2
b00000000101100 >
b0010 W
b0000010 T
1d
#305
0d
#306
b0011 W
b01110111011111111111111111111111 Z
b0000000001110111011111111111111111111111 Q
b00000000101100 c
1d
#307
0d
#308
b0001 W
1d
#309
0d
#310
b0000011 *
b0000011 /
b0000011 2
b00000000101101 >
b0010 W
b0000011 T
1d
#311
0d
#312
b0011 W
b00000000101101 c
1d
#313
0d
#314
b0001 W
1d
#315
0d
#316
b0000100 *
b0000100 /
b0000100 2
b00000000101110 >
b0010 W
b0000100 T
1d
#317
0d
#318
b0011 W
b00000000101110 c
1d
#319
0d
#320
b0001 W
1d
#321
0d
#322
b0000101 *
b0000101 /
b0000101 2
b00000000101111 >
b0010 W
b0000101 T
1d
#323
0d
#324
b0011 W
b00000000101111 c
1d
#325
0d
#326
b0001 W
1d
#327
0d
#328
b0000110 *
b0000110 /
b0000110 2
b00000000110000 >
b0010 W
b0000110 T
1d
#329
0d
#330
b0011 W
b00000000000000000000000000000000 Z
b0000000000000000000000000000000000000000 Q
b00000000110000 c
1d
#331
0d
#332
b0001 W
1d
#333
0d
#334
b0000000 )
b0000000 *
b0000000 .
b0000000 /
b0000000 1
b0000000 2
b00000000000000 >
b0010 W
b0000000 S
b0000000 T
b0000001 X
1d
#335
0d
#336
b0011 W
b00000000000000 c
1d
#337
0d
#338
b0001 W
1d
#339
0d
#340
b0000001 *
b0000001 /
b0000001 2
b00000000000001 >
b0010 W
b0000001 T
1d
#341
0d
#342
b00000000000000000000000000000100 $
b0011 W
b00000000000000000000000000000100 Z
b0000000000000000000000000000000000000100 Q
b00000000000001 c
1d
#343
0d
#344
b0001 W
1d
#345
0d
#346
b0000010 *
b0000010 /
b0000010 2
b00000000000010 >
b0010 W
b0000010 T
1d
#347
0d
#348
b00000000000000000000000000000000 $
b0011 W
b01110111011111111111111111111111 Z
b0000000001110111011111111111111111111111 Q
b00000000000010 c
1d
#349
0d
#350
b0001 W
1d
#351
0d
