src/fpga/Container.vcd
$version Generated by VerilatedVcd $end
$date Sat Apr  9 12:10:44 2016
 $end
$timescale 1ns $end

 $scope module TOP $end
  $var wire  1 } clk $end
  $var wire  1 "" done $end
  $var wire 40 "2 o_vertmat(0) [39:0] $end
  $var wire 40 "4 o_vertmat(1) [39:0] $end
  $var wire 40 "6 o_vertmat(2) [39:0] $end
  $var wire 40 "8 o_vertmat(3) [39:0] $end
  $var wire 40 ": o_vertmat(4) [39:0] $end
  $var wire 40 "< o_vertmat(5) [39:0] $end
  $var wire 40 "> o_vertmat(6) [39:0] $end
  $var wire  1 ~ reset $end
  $var wire  7 "! src [6:0] $end
  $var wire 32 "# test [31:0] $end
  $var wire 40 "$ vertmat(0) [39:0] $end
  $var wire 40 "& vertmat(1) [39:0] $end
  $var wire 40 "( vertmat(2) [39:0] $end
  $var wire 40 "* vertmat(3) [39:0] $end
  $var wire 40 ", vertmat(4) [39:0] $end
  $var wire 40 ". vertmat(5) [39:0] $end
  $var wire 40 "0 vertmat(6) [39:0] $end
  $scope module v $end
   $var wire  1 j bellman_done $end
   $var wire  1 l bellman_reset $end
   $var wire  1 } clk $end
   $var wire  1 k cycle_done $end
   $var wire  1 m cycle_reset $end
   $var wire  1 "" done $end
   $var wire 40 1 o_vertmat(0) [39:0] $end
   $var wire 40 3 o_vertmat(1) [39:0] $end
   $var wire 40 5 o_vertmat(2) [39:0] $end
   $var wire 40 7 o_vertmat(3) [39:0] $end
   $var wire 40 9 o_vertmat(4) [39:0] $end
   $var wire 40 ; o_vertmat(5) [39:0] $end
   $var wire 40 = o_vertmat(6) [39:0] $end
   $var wire  1 ~ reset $end
   $var wire  7 "! src [6:0] $end
   $var wire  3 i state [2:0] $end
   $var wire 32 "# test [31:0] $end
   $var wire 40 # vertmat(0) [39:0] $end
   $var wire 40 % vertmat(1) [39:0] $end
   $var wire 40 ' vertmat(2) [39:0] $end
   $var wire 40 ) vertmat(3) [39:0] $end
   $var wire 40 + vertmat(4) [39:0] $end
   $var wire 40 - vertmat(5) [39:0] $end
   $var wire 40 / vertmat(6) [39:0] $end
   $scope module bellman $end
    $var wire  1 j bellman_done $end
    $var wire  1 l bellman_reset $end
    $var wire  1 } clk $end
    $var wire 32 s dvw [31:0] $end
    $var wire 32 t e [31:0] $end
    $var wire  7 o i [6:0] $end
    $var wire  7 p j [6:0] $end
    $var wire  7 q k [6:0] $end
    $var wire  7 "! src [6:0] $end
    $var wire  5 n state [4:0] $end
    $var wire 32 r svw [31:0] $end
    $var wire 40 ? vertmat(0) [39:0] $end
    $var wire 40 A vertmat(1) [39:0] $end
    $var wire 40 C vertmat(2) [39:0] $end
    $var wire 40 E vertmat(3) [39:0] $end
    $var wire 40 G vertmat(4) [39:0] $end
    $var wire 40 I vertmat(5) [39:0] $end
    $var wire 40 K vertmat(6) [39:0] $end
   $upscope $end
   $scope module cycle_detect $end
    $var wire  1 } clk $end
    $var wire  1 k cycle_done $end
    $var wire  1 m cycle_reset $end
    $var wire 32 { dvw [31:0] $end
    $var wire 32 | e [31:0] $end
    $var wire  7 v i [6:0] $end
    $var wire  7 w j [6:0] $end
    $var wire  7 x k [6:0] $end
    $var wire  7 y l [6:0] $end
    $var wire 40 [ o_vertmat(0) [39:0] $end
    $var wire 40 ] o_vertmat(1) [39:0] $end
    $var wire 40 _ o_vertmat(2) [39:0] $end
    $var wire 40 a o_vertmat(3) [39:0] $end
    $var wire 40 c o_vertmat(4) [39:0] $end
    $var wire 40 e o_vertmat(5) [39:0] $end
    $var wire 40 g o_vertmat(6) [39:0] $end
    $var wire  4 u state [3:0] $end
    $var wire 32 z svw [31:0] $end
    $var wire 32 "# test [31:0] $end
    $var wire 40 M vertmat(0) [39:0] $end
    $var wire 40 O vertmat(1) [39:0] $end
    $var wire 40 Q vertmat(2) [39:0] $end
    $var wire 40 S vertmat(3) [39:0] $end
    $var wire 40 U vertmat(4) [39:0] $end
    $var wire 40 W vertmat(5) [39:0] $end
    $var wire 40 Y vertmat(6) [39:0] $end
   $upscope $end
  $upscope $end
 $upscope $end
$enddefinitions $end


#0
b0000000000000000000000000000000000000000 #
b0000000000000000000000000000000000000000 %
b0000000000000000000000000000000000000000 '
b0000000000000000000000000000000000000000 )
b0000000000000000000000000000000000000000 +
b0000000000000000000000000000000000000000 -
b0000000000000000000000000000000000000000 /
b0000000000000000000000000000000000000000 1
b0000000000000000000000000000000000000000 3
b0000000000000000000000000000000000000000 5
b0000000000000000000000000000000000000000 7
b0000000000000000000000000000000000000000 9
b0000000000000000000000000000000000000000 ;
b0000000000000000000000000000000000000000 =
b0000000000000000000000000000000000000000 ?
b0000000000000000000000000000000000000000 A
b0000000000000000000000000000000000000000 C
b0000000000000000000000000000000000000000 E
b0000000000000000000000000000000000000000 G
b0000000000000000000000000000000000000000 I
b0000000000000000000000000000000000000000 K
b0000000000000000000000000000000000000000 M
b0000000000000000000000000000000000000000 O
b0000000000000000000000000000000000000000 Q
b0000000000000000000000000000000000000000 S
b0000000000000000000000000000000000000000 U
b0000000000000000000000000000000000000000 W
b0000000000000000000000000000000000000000 Y
b0000000000000000000000000000000000000000 [
b0000000000000000000000000000000000000000 ]
b0000000000000000000000000000000000000000 _
b0000000000000000000000000000000000000000 a
b0000000000000000000000000000000000000000 c
b0000000000000000000000000000000000000000 e
b0000000000000000000000000000000000000000 g
b000 i
0j
0k
0l
0m
b00000 n
b0000000 o
b0000000 p
b0000000 q
b00000000000000000000000000000000 r
b00000000000000000000000000000000 s
b00000000000000000000000000000000 t
b0000 u
b0000000 v
b0000000 w
b0000000 x
b0000000 y
b00000000000000000000000000000000 z
b00000000000000000000000000000000 {
b00000000000000000000000000000000 |
1~
0""
b0000000000000000000000000000000000000000 "$
b0000000000000000000000000000000000000000 "&
b0000000000000000000000000000000000000000 "(
b0000000000000000000000000000000000000000 "*
b0000000000000000000000000000000000000000 ",
b0000000000000000000000000000000000000000 ".
b0000000000000000000000000000000000000000 "0
b0000000000000000000000000000000000000000 "2
b0000000000000000000000000000000000000000 "4
b0000000000000000000000000000000000000000 "6
b0000000000000000000000000000000000000000 "8
b0000000000000000000000000000000000000000 ":
b0000000000000000000000000000000000000000 "<
b0000000000000000000000000000000000000000 ">
b0000000 "!
1}
b00000000000000000000000000000000 "#
#1
0}
#2
1l
b0000001 q
b0001 u
0~
1}
#3
0}
#4
0l
b0000000 q
b0010 u
1}
#5
0}
#6
b0000001 q
b0000 u
b0000001 w
1}
#7
0}
#8
b0000000001111111111111111111111111111111 %
b0000000001111111111111111111111111111111 A
b0000000001111111111111111111111111111111 O
b0000010 q
b0001 u
b11111111111111111111111111111110 |
b0000000001111111111111111111111111111111 "&
1}
#9
0}
#10
b0000000001111111111111111111111111111111 '
b0000000001111111111111111111111111111111 C
b0000000001111111111111111111111111111111 Q
b0000011 q
b0010 u
b01111111111111111111111111111111 {
b0000000001111111111111111111111111111111 "(
1}
#11
0}
#12
b0000000001111111111111111111111111111111 )
b0000000001111111111111111111111111111111 E
b0000000001111111111111111111111111111111 S
b0000100 q
b0011 u
b0000001 x
b0000000001111111111111111111111111111111 "*
1}
#13
0}
#14
b0000000001111111111111111111111111111111 +
b0000000001111111111111111111111111111111 G
b0000000001111111111111111111111111111111 U
b0000101 q
b0000000001111111111111111111111111111111 ",
1}
#15
0}
#16
b0000000001111111111111111111111111111111 -
b0000000001111111111111111111111111111111 I
b0000000001111111111111111111111111111111 W
b0000110 q
b0000000001111111111111111111111111111111 ".
1}
#17
0}
#18
b00001 n
b0000000 q
1}
#19
0}
#20
b00010 n
1}
#21
0}
#22
b00011 n
1}
#23
0}
#24
b00100 n
1}
#25
0}
#26
b00001 n
b0000001 p
1}
#27
0}
#28
b00010 n
b11111111111111111111111111111110 t
1}
#29
0}
#30
b00011 n
b01111111111111111111111111111111 s
1}
#31
0}
#32
b00100 n
1}
#33
0}
#34
b0000000011111111111111111111111111111110 %
b0000000011111111111111111111111111111110 A
b0000000011111111111111111111111111111110 O
b00001 n
b0000010 p
b0000000011111111111111111111111111111110 "&
1}
#35
0}
#36
b00010 n
b00000000000000000000000000000000 t
1}
#37
0}
#38
b00011 n
1}
#39
0}
#40
b00100 n
1}
#41
0}
#42
b00001 n
b0000011 p
1}
#43
0}
#44
b00010 n
1}
#45
0}
#46
b00011 n
1}
#47
0}
#48
b00100 n
1}
#49
0}
#50
b00001 n
b0000100 p
1}
#51
0}
#52
b00010 n
1}
#53
0}
#54
b00011 n
1}
#55
0}
#56
b00100 n
1}
#57
0}
#58
b00001 n
b0000101 p
1}
#59
0}
#60
b00010 n
1}
#61
0}
#62
b00011 n
1}
#63
0}
#64
b00100 n
1}
#65
0}
#66
b00001 n
b0000001 o
b0000000 p
1}
#67
0}
#68
b00010 n
b11111111111111111111111111111110 r
1}
#69
0}
#70
b00011 n
b00000000000000000000000000000000 s
1}
#71
0}
#72
b00100 n
1}
#73
0}
#74
b00001 n
b0000001 p
1}
#75
0}
#76
b00010 n
1}
#77
0}
#78
b00011 n
b11111111111111111111111111111110 s
1}
#79
0}
#80
b00100 n
1}
#81
0}
#82
b00001 n
b0000010 p
1}
#83
0}
#84
b00010 n
1}
#85
0}
#86
b00011 n
b01111111111111111111111111111111 s
1}
#87
0}
#88
b00100 n
1}
#89
0}
#90
b00001 n
b0000011 p
1}
#91
0}
#92
b00010 n
1}
#93
0}
#94
b00011 n
1}
#95
0}
#96
b00100 n
1}
#97
0}
#98
b00001 n
b0000100 p
1}
#99
0}
#100
b00010 n
1}
#101
0}
#102
b00011 n
1}
#103
0}
#104
b00100 n
1}
#105
0}
#106
b00001 n
b0000101 p
1}
#107
0}
#108
b00010 n
b00000000000000000000000000000011 t
1}
#109
0}
#110
b00011 n
1}
#111
0}
#112
b0000000101111111111111111111111111111111 -
b0000000101111111111111111111111111111111 I
b0000000101111111111111111111111111111111 W
b00100 n
b0000000101111111111111111111111111111111 ".
1}
#113
0}
#114
b0000000100000000000000000000000000000001 -
b0000000100000000000000000000000000000001 I
b0000000100000000000000000000000000000001 W
b00001 n
b0000010 o
b0000000 p
b0000000100000000000000000000000000000001 ".
1}
#115
0}
#116
b00010 n
b01111111111111111111111111111111 r
b00000000000000000000000000000000 t
1}
#117
0}
#118
b00011 n
b00000000000000000000000000000000 s
1}
#119
0}
#120
b00100 n
1}
#121
0}
#122
b00001 n
b0000001 p
1}
#123
0}
#124
b00010 n
1}
#125
0}
#126
b00011 n
b11111111111111111111111111111110 s
1}
#127
0}
#128
b00100 n
1}
#129
0}
#130
b00001 n
b0000010 p
1}
#131
0}
#132
b00010 n
1}
#133
0}
#134
b00011 n
b01111111111111111111111111111111 s
1}
#135
0}
#136
b00100 n
1}
#137
0}
#138
b00001 n
b0000011 p
1}
#139
0}
#140
b00010 n
b11111111111111111111111111111100 t
1}
#141
0}
#142
b00011 n
1}
#143
0}
#144
b0000001001111111111111111111111111111111 )
b0000001001111111111111111111111111111111 E
b0000001001111111111111111111111111111111 S
b00100 n
b0000001001111111111111111111111111111111 "*
1}
#145
0}
#146
b0000001001111111111111111111111111111011 )
b0000001001111111111111111111111111111011 E
b0000001001111111111111111111111111111011 S
b00001 n
b0000100 p
b0000001001111111111111111111111111111011 "*
1}
#147
0}
#148
b00010 n
b00000000000000000000000000000000 t
1}
#149
0}
#150
b00011 n
1}
#151
0}
#152
b00100 n
1}
#153
0}
#154
b00001 n
b0000101 p
1}
#155
0}
#156
b00010 n
1}
#157
0}
#158
b00011 n
b00000000000000000000000000000001 s
1}
#159
0}
#160
b00100 n
1}
#161
0}
#162
b00001 n
b0000011 o
b0000000 p
1}
#163
0}
#164
b00010 n
b01111111111111111111111111111011 r
1}
#165
0}
#166
b00011 n
b00000000000000000000000000000000 s
1}
#167
0}
#168
b00100 n
1}
#169
0}
#170
b00001 n
b0000001 p
1}
#171
0}
#172
b00010 n
1}
#173
0}
#174
b00011 n
b11111111111111111111111111111110 s
1}
#175
0}
#176
b00100 n
1}
#177
0}
#178
b00001 n
b0000010 p
1}
#179
0}
#180
b00010 n
1}
#181
0}
#182
b00011 n
b01111111111111111111111111111111 s
1}
#183
0}
#184
b00100 n
1}
#185
0}
#186
b00001 n
b0000011 p
1}
#187
0}
#188
b00010 n
1}
#189
0}
#190
b00011 n
b01111111111111111111111111111011 s
1}
#191
0}
#192
b00100 n
1}
#193
0}
#194
b00001 n
b0000100 p
1}
#195
0}
#196
b00010 n
b11111111111111111111111111111101 t
1}
#197
0}
#198
b00011 n
b01111111111111111111111111111111 s
1}
#199
0}
#200
b0000001101111111111111111111111111111111 +
b0000001101111111111111111111111111111111 G
b0000001101111111111111111111111111111111 U
b00100 n
b0000001101111111111111111111111111111111 ",
1}
#201
0}
#202
b0000001101111111111111111111111111111000 +
b0000001101111111111111111111111111111000 G
b0000001101111111111111111111111111111000 U
b00001 n
b0000101 p
b0000001101111111111111111111111111111000 ",
1}
#203
0}
#204
b00010 n
b00000000000000000000000000000000 t
1}
#205
0}
#206
b00011 n
b00000000000000000000000000000001 s
1}
#207
0}
#208
b00100 n
1}
#209
0}
#210
b00001 n
b0000100 o
b0000000 p
1}
#211
0}
#212
b00010 n
b01111111111111111111111111111000 r
1}
#213
0}
#214
b00011 n
b00000000000000000000000000000000 s
1}
#215
0}
#216
b00100 n
1}
#217
0}
#218
b00001 n
b0000001 p
1}
#219
0}
#220
b00010 n
1}
#221
0}
#222
b00011 n
b11111111111111111111111111111110 s
1}
#223
0}
#224
b00100 n
1}
#225
0}
#226
b00001 n
b0000010 p
1}
#227
0}
#228
b00010 n
b00000000000000000000000000000100 t
1}
#229
0}
#230
b00011 n
b01111111111111111111111111111111 s
1}
#231
0}
#232
b0000010001111111111111111111111111111111 '
b0000010001111111111111111111111111111111 C
b0000010001111111111111111111111111111111 Q
b00100 n
b0000010001111111111111111111111111111111 "(
1}
#233
0}
#234
b0000010001111111111111111111111111111100 '
b0000010001111111111111111111111111111100 C
b0000010001111111111111111111111111111100 Q
b00001 n
b0000011 p
b0000010001111111111111111111111111111100 "(
1}
#235
0}
#236
b00010 n
b00000000000000000000000000000000 t
1}
#237
0}
#238
b00011 n
b01111111111111111111111111111011 s
1}
#239
0}
#240
b00100 n
1}
#241
0}
#242
b00001 n
b0000100 p
1}
#243
0}
#244
b00010 n
1}
#245
0}
#246
b00011 n
b01111111111111111111111111111000 s
1}
#247
0}
#248
b00100 n
1}
#249
0}
#250
b00001 n
b0000101 p
1}
#251
0}
#252
b00010 n
1}
#253
0}
#254
b00011 n
b00000000000000000000000000000001 s
1}
#255
0}
#256
b00100 n
1}
#257
0}
#258
b00001 n
b0000101 o
b0000000 p
1}
#259
0}
#260
b00010 n
b00000000000000000000000000000001 r
b11111111111111111111111111111110 t
1}
#261
0}
#262
b00011 n
b00000000000000000000000000000000 s
1}
#263
0}
#264
b0000010100000000000000000000000000000000 #
b0000010100000000000000000000000000000000 ?
b0000010100000000000000000000000000000000 M
b00100 n
b0000010100000000000000000000000000000000 "$
1}
#265
0}
#266
b0000010111111111111111111111111111111111 #
b0000000000000000000000000000000000000101 1
b0000010111111111111111111111111111111111 ?
b0000010111111111111111111111111111111111 M
b0000000000000000000000000000000000000101 [
b00001 n
b0000001 p
b0000101 y
b0000010111111111111111111111111111111111 "$
b0000000000000000000000000000000000000101 "2
1}
#267
0}
#268
b0000000000000000000000000000000000000001 ;
b0000000000000000000000000000000000000001 e
b00010 n
b00000000000000000000000000000000 t
b0000001 y
b0000000000000000000000000000000000000001 "<
1}
#269
0}
#270
b00011 n
b11111111111111111111111111111110 s
b0000 u
b0000010 w
b0000000 y
1}
#271
0}
#272
b00100 n
b0001 u
b11111111111111111111111111111111 z
b00000000000000000000000000000000 |
1}
#273
0}
#274
b00001 n
b0000010 p
b0010 u
b01111111111111111111111111111100 {
1}
#275
0}
#276
b00010 n
b00000000000000000000000000000001 t
b0000 u
b0000011 w
1}
#277
0}
#278
b00011 n
b01111111111111111111111111111100 s
b0001 u
1}
#279
0}
#280
b0000010101111111111111111111111111111100 '
b0000010101111111111111111111111111111100 C
b0000010101111111111111111111111111111100 Q
b00100 n
b0010 u
b01111111111111111111111111111011 {
b0000010101111111111111111111111111111100 "(
1}
#281
0}
#282
b0000010100000000000000000000000000000010 '
b0000010100000000000000000000000000000010 C
b0000010100000000000000000000000000000010 Q
b00001 n
b0000011 p
b0000 u
b0000100 w
b0000010100000000000000000000000000000010 "(
1}
#283
0}
#284
b00010 n
b00000000000000000000000000000000 t
b0001 u
1}
#285
0}
#286
b00011 n
b01111111111111111111111111111011 s
b0010 u
b01111111111111111111111111111000 {
1}
#287
0}
#288
b00100 n
b0000 u
b0000101 w
1}
#289
0}
#290
b00001 n
b0000100 p
b0001 u
1}
#291
0}
#292
b00010 n
b0010 u
b00000000000000000000000000000001 {
1}
#293
0}
#294
b00011 n
b01111111111111111111111111111000 s
b0000 u
b0000001 v
b0000000 w
1}
#295
0}
#296
b00100 n
b0001 u
b11111111111111111111111111111110 z
1}
#297
0}
#298
b00001 n
b0000101 p
b0010 u
b11111111111111111111111111111111 {
1}
#299
0}
#300
b00010 n
b0000 u
b0000001 w
1}
#301
0}
#302
b00011 n
b00000000000000000000000000000001 s
b0001 u
1}
#303
0}
#304
b00100 n
b0010 u
b11111111111111111111111111111110 {
1}
#305
0}
#306
b00001 n
b0000000 o
b0000000 p
b0000001 q
b0000 u
b0000010 w
1}
#307
0}
#308
b00010 n
b11111111111111111111111111111111 r
b0001 u
1}
#309
0}
#310
b00011 n
b11111111111111111111111111111111 s
b0010 u
b00000000000000000000000000000010 {
1}
#311
0}
#312
b00100 n
b0000 u
b0000011 w
1}
#313
0}
#314
b00001 n
b0000001 p
b0001 u
1}
#315
0}
#316
b00010 n
b11111111111111111111111111111110 t
b0010 u
b01111111111111111111111111111011 {
1}
#317
0}
#318
b00011 n
b11111111111111111111111111111110 s
b0000 u
b0000100 w
1}
#319
0}
#320
b00100 n
b0001 u
1}
#321
0}
#322
b0000000011111111111111111111111111111101 %
b0000000011111111111111111111111111111101 A
b0000000011111111111111111111111111111101 O
b00001 n
b0000010 p
b0010 u
b01111111111111111111111111111000 {
b0000000011111111111111111111111111111101 "&
1}
#323
0}
#324
b00010 n
b00000000000000000000000000000000 t
b0000 u
b0000101 w
1}
#325
0}
#326
b00011 n
b00000000000000000000000000000010 s
b0001 u
b11111111111111111111111111111101 z
b00000000000000000000000000000011 |
1}
#327
0}
#328
b00100 n
b0010 u
b00000000000000000000000000000001 {
1}
#329
0}
#330
b00001 n
b0000011 p
b0011 u
b0000101 x
b0000001 y
1}
#331
0}
#332
b00010 n
b0000000 y
1}
#333
0}
#334
b00011 n
b01111111111111111111111111111011 s
b0000101 y
1}
#335
0}
#336
b00100 n
b0000 u
b0000010 v
b0000000 w
b0000001 y
1}
#337
0}
#338
b00001 n
b0000100 p
b0001 u
b00000000000000000000000000000010 z
b00000000000000000000000000000000 |
1}
#339
0}
#340
b00010 n
b0010 u
b11111111111111111111111111111111 {
1}
#341
0}
#342
b00011 n
b01111111111111111111111111111000 s
b0000 u
b0000001 w
1}
#343
0}
#344
b00100 n
b0001 u
1}
#345
0}
#346
b00001 n
b0000101 p
b0010 u
b11111111111111111111111111111101 {
1}
#347
0}
#348
b00010 n
b0000 u
b0000010 w
1}
#349
0}
#350
b00011 n
b00000000000000000000000000000001 s
b0001 u
1}
#351
0}
#352
b00100 n
b0010 u
b00000000000000000000000000000010 {
1}
#353
0}
#354
b00001 n
b0000001 o
b0000000 p
b0000 u
b0000011 w
1}
#355
0}
#356
b00010 n
b11111111111111111111111111111101 r
b0001 u
b11111111111111111111111111111100 |
1}
#357
0}
#358
b00011 n
b11111111111111111111111111111111 s
b0010 u
b01111111111111111111111111111011 {
1}
#359
0}
#360
b00100 n
b0011 u
b0000011 x
b0000010 y
1}
#361
0}
#362
b0000000000000000000000000000000000000101 5
b0000000000000000000000000000000000000101 _
b00001 n
b0000001 p
b0000101 y
b0000000000000000000000000000000000000101 "6
1}
#363
0}
#364
b00010 n
b0000001 y
1}
#365
0}
#366
b00011 n
b11111111111111111111111111111101 s
b0000000 y
1}
#367
0}
#368
b00100 n
b0000101 y
1}
#369
0}
#370
b00001 n
b0000010 p
b0000001 y
1}
#371
0}
#372
b00010 n
b0000000 y
1}
#373
0}
#374
b00011 n
b00000000000000000000000000000010 s
b0000101 y
1}
#375
0}
#376
b00100 n
b0000001 y
1}
#377
0}
#378
b00001 n
b0000011 p
b0000000 y
1}
#379
0}
#380
b00010 n
b0000101 y
1}
#381
0}
#382
b00011 n
b01111111111111111111111111111011 s
b0000001 y
1}
#383
0}
#384
b00100 n
b0000000 y
1}
#385
0}
#386
b00001 n
b0000100 p
b0000101 y
1}
#387
0}
#388
b00010 n
b0000001 y
1}
#389
0}
#390
b00011 n
b01111111111111111111111111111000 s
b0000000 y
1}
#391
0}
#392
b00100 n
b0000101 y
1}
#393
0}
#394
b00001 n
b0000101 p
b0000001 y
1}
#395
0}
#396
b00010 n
b00000000000000000000000000000011 t
b0000000 y
1}
#397
0}
#398
b00011 n
b00000000000000000000000000000001 s
b0000101 y
1}
#399
0}
#400
b00100 n
b0000001 y
1}
#401
0}
#402
b0000000100000000000000000000000000000000 -
b0000000100000000000000000000000000000000 I
b0000000100000000000000000000000000000000 W
b00001 n
b0000010 o
b0000000 p
b0000000 y
b0000000100000000000000000000000000000000 ".
1}
#403
0}
#404
b00010 n
b00000000000000000000000000000010 r
b00000000000000000000000000000000 t
b0000101 y
1}
#405
0}
#406
b00011 n
b11111111111111111111111111111111 s
b0000001 y
1}
#407
0}
#408
b00100 n
b0000000 y
1}
#409
0}
#410
b00001 n
b0000001 p
b0000101 y
1}
#411
0}
#412
b00010 n
b0000001 y
1}
#413
0}
#414
b00011 n
b11111111111111111111111111111101 s
b0000000 y
1}
#415
0}
#416
b00100 n
b0000101 y
1}
#417
0}
#418
b00001 n
b0000010 p
b0000001 y
1}
#419
0}
#420
b00010 n
b0000000 y
1}
#421
0}
#422
b00011 n
b00000000000000000000000000000010 s
b0000101 y
1}
#423
0}
#424
b00100 n
b0000001 y
1}
#425
0}
#426
b00001 n
b0000011 p
b0000000 y
1}
#427
0}
#428
b00010 n
b11111111111111111111111111111100 t
b0000101 y
1}
#429
0}
#430
b00011 n
b01111111111111111111111111111011 s
b0000001 y
1}
#431
0}
#432
b00100 n
b0000000 y
1}
#433
0}
#434
b0000001011111111111111111111111111111110 )
b0000001011111111111111111111111111111110 E
b0000001011111111111111111111111111111110 S
b00001 n
b0000100 p
b0000101 y
b0000001011111111111111111111111111111110 "*
1}
#435
0}
#436
b00010 n
b00000000000000000000000000000000 t
b0000001 y
1}
#437
0}
#438
b00011 n
b01111111111111111111111111111000 s
b0000000 y
1}
#439
0}
#440
b00100 n
b0000101 y
1}
#441
0}
#442
b00001 n
b0000101 p
b0000001 y
1}
#443
0}
#444
b00010 n
b0000000 y
1}
#445
0}
#446
b00011 n
b00000000000000000000000000000000 s
b0000101 y
1}
#447
0}
#448
b00100 n
b0000001 y
1}
#449
0}
#450
b00001 n
b0000011 o
b0000000 p
b0000000 y
1}
#451
0}
#452
b00010 n
b11111111111111111111111111111110 r
b0000101 y
1}
#453
0}
#454
b00011 n
b11111111111111111111111111111111 s
b0000001 y
1}
#455
0}
#456
b00100 n
b0000000 y
1}
#457
0}
#458
b00001 n
b0000001 p
b0000101 y
1}
#459
0}
#460
b00010 n
b0000001 y
1}
#461
0}
#462
b00011 n
b11111111111111111111111111111101 s
b0000000 y
1}
#463
0}
#464
b00100 n
b0000101 y
1}
#465
0}
#466
b00001 n
b0000010 p
b0000001 y
1}
#467
0}
#468
b00010 n
b0000000 y
1}
#469
0}
#470
b00011 n
b00000000000000000000000000000010 s
b0000101 y
1}
#471
0}
#472
b00100 n
b0000001 y
1}
#473
0}
#474
b00001 n
b0000011 p
b0000000 y
1}
#475
0}
#476
b00010 n
b0000101 y
1}
#477
0}
#478
b00011 n
b11111111111111111111111111111110 s
b0000001 y
1}
#479
0}
#480
b00100 n
b0000000 y
1}
#481
0}
#482
b00001 n
b0000100 p
b0000101 y
1}
#483
0}
#484
b00010 n
b11111111111111111111111111111101 t
b0000001 y
1}
#485
0}
#486
b00011 n
b01111111111111111111111111111000 s
b0000000 y
1}
#487
0}
#488
b00100 n
b0000101 y
1}
#489
0}
#490
b0000001111111111111111111111111111111011 +
b0000001111111111111111111111111111111011 G
b0000001111111111111111111111111111111011 U
b00001 n
b0000101 p
b0000001 y
b0000001111111111111111111111111111111011 ",
1}
#491
0}
#492
b00010 n
b00000000000000000000000000000000 t
b0000000 y
1}
#493
0}
#494
b00011 n
b00000000000000000000000000000000 s
b0000101 y
1}
#495
0}
#496
b00100 n
b0000001 y
1}
#497
0}
#498
b00001 n
b0000100 o
b0000000 p
b0000000 y
1}
#499
0}
#500
b00010 n
b11111111111111111111111111111011 r
b0000101 y
1}
#501
0}
#502
b00011 n
b11111111111111111111111111111111 s
b0000001 y
1}
#503
0}
#504
b00100 n
b0000000 y
1}
#505
0}
#506
b00001 n
b0000001 p
b0000101 y
1}
#507
0}
#508
b00010 n
b0000001 y
1}
#509
0}
#510
b00011 n
b11111111111111111111111111111101 s
b0000000 y
1}
#511
0}
#512
b00100 n
b0000101 y
1}
#513
0}
#514
b00001 n
b0000010 p
b0000001 y
1}
#515
0}
#516
b00010 n
b00000000000000000000000000000100 t
b0000000 y
1}
#517
0}
#518
b00011 n
b00000000000000000000000000000010 s
b0000101 y
1}
#519
0}
#520
b0000010000000000000000000000000000000010 '
b0000010000000000000000000000000000000010 C
b0000010000000000000000000000000000000010 Q
b00100 n
b0000001 y
b0000010000000000000000000000000000000010 "(
1}
#521
0}
#522
b0000010011111111111111111111111111111111 '
b0000010011111111111111111111111111111111 C
b0000010011111111111111111111111111111111 Q
b00001 n
b0000011 p
b0000000 y
b0000010011111111111111111111111111111111 "(
1}
#523
0}
#524
b00010 n
b00000000000000000000000000000000 t
b0000101 y
1}
#525
0}
#526
b00011 n
b11111111111111111111111111111110 s
b0000001 y
1}
#527
0}
#528
b00100 n
b0000000 y
1}
#529
0}
#530
b00001 n
b0000100 p
b0000101 y
1}
#531
0}
#532
b00010 n
b0000001 y
1}
#533
0}
#534
b00011 n
b11111111111111111111111111111011 s
b0000000 y
1}
#535
0}
#536
b00100 n
b0000101 y
1}
#537
0}
#538
b00001 n
b0000101 p
b0000001 y
1}
#539
0}
#540
b00010 n
b0000000 y
1}
#541
0}
#542
b00011 n
b00000000000000000000000000000000 s
b0000101 y
1}
#543
0}
#544
b00100 n
b0000001 y
1}
#545
0}
#546
b00001 n
b0000101 o
b0000000 p
b0000000 y
1}
#547
0}
#548
b00010 n
b00000000000000000000000000000000 r
b11111111111111111111111111111110 t
b0000101 y
1}
#549
0}
#550
b00011 n
b11111111111111111111111111111111 s
b0000001 y
1}
#551
0}
#552
b00100 n
b0000000 y
1}
#553
0}
#554
b0000010111111111111111111111111111111110 #
b0000010111111111111111111111111111111110 ?
b0000010111111111111111111111111111111110 M
b00001 n
b0000001 p
b0000101 y
b0000010111111111111111111111111111111110 "$
1}
#555
0}
#556
b00010 n
b00000000000000000000000000000000 t
b0000001 y
1}
#557
0}
#558
b00011 n
b11111111111111111111111111111101 s
b0000000 y
1}
#559
0}
#560
b00100 n
b0000101 y
1}
#561
0}
#562
b00001 n
b0000010 p
b0000001 y
1}
#563
0}
#564
b00010 n
b00000000000000000000000000000001 t
b0000000 y
1}
#565
0}
#566
b00011 n
b11111111111111111111111111111111 s
b0000101 y
1}
#567
0}
#568
b00100 n
b0000001 y
1}
#569
0}
#570
b00001 n
b0000011 p
b0000000 y
1}
#571
0}
#572
b00010 n
b00000000000000000000000000000000 t
b0000101 y
1}
#573
0}
#574
b00011 n
b11111111111111111111111111111110 s
b0000001 y
1}
#575
0}
#576
b00100 n
b0000000 y
1}
#577
0}
#578
b00001 n
b0000100 p
b0000101 y
1}
#579
0}
#580
b00010 n
b0000001 y
1}
#581
0}
#582
b00011 n
b11111111111111111111111111111011 s
b0000000 y
1}
#583
0}
#584
b00100 n
b0000101 y
1}
#585
0}
#586
b00001 n
b0000101 p
b0000001 y
1}
#587
0}
#588
b00010 n
b0000000 y
1}
#589
0}
#590
b00011 n
b00000000000000000000000000000000 s
b0000101 y
1}
#591
0}
#592
b00100 n
b0000001 y
1}
#593
0}
#594
b00001 n
b0000000 o
b0000000 p
b0000010 q
b0000000 y
1}
#595
0}
#596
b00010 n
b11111111111111111111111111111110 r
b0000101 y
1}
#597
0}
#598
b00011 n
b11111111111111111111111111111110 s
b0000001 y
1}
#599
0}
#600
b00100 n
b0000000 y
1}
#601
0}
#602
b00001 n
b0000001 p
b0000101 y
1}
#603
0}
#604
b00010 n
b11111111111111111111111111111110 t
b0000001 y
1}
#605
0}
#606
b00011 n
b11111111111111111111111111111101 s
b0000000 y
1}
#607
0}
#608
b00100 n
b0000101 y
1}
#609
0}
#610
b0000000011111111111111111111111111111100 %
b0000000011111111111111111111111111111100 A
b0000000011111111111111111111111111111100 O
b00001 n
b0000010 p
b0000001 y
b0000000011111111111111111111111111111100 "&
1}
#611
0}
#612
b00010 n
b00000000000000000000000000000000 t
b0000000 y
1}
#613
0}
#614
b00011 n
b11111111111111111111111111111111 s
b0000101 y
1}
#615
0}
#616
b00100 n
b0000001 y
1}
#617
0}
#618
b00001 n
b0000011 p
b0000000 y
1}
#619
0}
#620
b00010 n
b0000101 y
1}
#621
0}
#622
b00011 n
b11111111111111111111111111111110 s
b0000001 y
1}
#623
0}
#624
b00100 n
b0000000 y
1}
#625
0}
#626
b00001 n
b0000100 p
b0000101 y
1}
#627
0}
#628
b00010 n
b0000001 y
1}
#629
0}
